%!PS-Adobe-3.0 EPSF-3.0
%%Creator: (MATLAB, The Mathworks, Inc. Version 8.4.0.150421 \(R2014b\). Operating System: Windows Server 2008 R2)
%%Title: H:/Codes/sax1fig1989.eps
%%CreationDate: 2016-04-22T18:42:32
%%Pages: (atend)
%%BoundingBox: 0 0 420 315
%%LanguageLevel: 2
%%EndComments
%%BeginProlog
%%BeginResource: procset (Apache XML Graphics Std ProcSet) 1.2 0
%%Version: 1.2 0
%%Copyright: (Copyright 2001-2003,2010 The Apache Software Foundation. License terms: http://www.apache.org/licenses/LICENSE-2.0)
/bd{bind def}bind def
/ld{load def}bd
/GR/grestore ld
/M/moveto ld
/LJ/setlinejoin ld
/C/curveto ld
/f/fill ld
/LW/setlinewidth ld
/GC/setgray ld
/t/show ld
/N/newpath ld
/CT/concat ld
/cp/closepath ld
/S/stroke ld
/L/lineto ld
/CC/setcmykcolor ld
/A/ashow ld
/GS/gsave ld
/RC/setrgbcolor ld
/RM/rmoveto ld
/ML/setmiterlimit ld
/re {4 2 roll M
1 index 0 rlineto
0 exch rlineto
neg 0 rlineto
cp } bd
/_ctm matrix def
/_tm matrix def
/BT { _ctm currentmatrix pop matrix _tm copy pop 0 0 moveto } bd
/ET { _ctm setmatrix } bd
/iTm { _ctm setmatrix _tm concat } bd
/Tm { _tm astore pop iTm 0 0 moveto } bd
/ux 0.0 def
/uy 0.0 def
/F {
  /Tp exch def
  /Tf exch def
  Tf findfont Tp scalefont setfont
  /cf Tf def  /cs Tp def
} bd
/ULS {currentpoint /uy exch def /ux exch def} bd
/ULE {
  /Tcx currentpoint pop def
  gsave
  newpath
  cf findfont cs scalefont dup
  /FontMatrix get 0 get /Ts exch def /FontInfo get dup
  /UnderlinePosition get Ts mul /To exch def
  /UnderlineThickness get Ts mul /Tt exch def
  ux uy To add moveto  Tcx uy To add lineto
  Tt setlinewidth stroke
  grestore
} bd
/OLE {
  /Tcx currentpoint pop def
  gsave
  newpath
  cf findfont cs scalefont dup
  /FontMatrix get 0 get /Ts exch def /FontInfo get dup
  /UnderlinePosition get Ts mul /To exch def
  /UnderlineThickness get Ts mul /Tt exch def
  ux uy To add cs add moveto Tcx uy To add cs add lineto
  Tt setlinewidth stroke
  grestore
} bd
/SOE {
  /Tcx currentpoint pop def
  gsave
  newpath
  cf findfont cs scalefont dup
  /FontMatrix get 0 get /Ts exch def /FontInfo get dup
  /UnderlinePosition get Ts mul /To exch def
  /UnderlineThickness get Ts mul /Tt exch def
  ux uy To add cs 10 mul 26 idiv add moveto Tcx uy To add cs 10 mul 26 idiv add lineto
  Tt setlinewidth stroke
  grestore
} bd
/QT {
/Y22 exch store
/X22 exch store
/Y21 exch store
/X21 exch store
currentpoint
/Y21 load 2 mul add 3 div exch
/X21 load 2 mul add 3 div exch
/X21 load 2 mul /X22 load add 3 div
/Y21 load 2 mul /Y22 load add 3 div
/X22 load /Y22 load curveto
} bd
/SSPD {
dup length /d exch dict def
{
/v exch def
/k exch def
currentpagedevice k known {
/cpdv currentpagedevice k get def
v cpdv ne {
/upd false def
/nullv v type /nulltype eq def
/nullcpdv cpdv type /nulltype eq def
nullv nullcpdv or
{
/upd true def
} {
/sametype v type cpdv type eq def
sametype {
v type /arraytype eq {
/vlen v length def
/cpdvlen cpdv length def
vlen cpdvlen eq {
0 1 vlen 1 sub {
/i exch def
/obj v i get def
/cpdobj cpdv i get def
obj cpdobj ne {
/upd true def
exit
} if
} for
} {
/upd true def
} ifelse
} {
v type /dicttype eq {
v {
/dv exch def
/dk exch def
/cpddv cpdv dk get def
dv cpddv ne {
/upd true def
exit
} if
} forall
} {
/upd true def
} ifelse
} ifelse
} if
} ifelse
upd true eq {
d k v put
} if
} if
} if
} forall
d length 0 gt {
d setpagedevice
} if
} bd
%%EndResource
%%BeginResource: procset (Apache XML Graphics EPS ProcSet) 1.0 0
%%Version: 1.0 0
%%Copyright: (Copyright 2002-2003 The Apache Software Foundation. License terms: http://www.apache.org/licenses/LICENSE-2.0)
/BeginEPSF { %def
/b4_Inc_state save def         % Save state for cleanup
/dict_count countdictstack def % Count objects on dict stack
/op_count count 1 sub def      % Count objects on operand stack
userdict begin                 % Push userdict on dict stack
/showpage { } def              % Redefine showpage, { } = null proc
0 setgray 0 setlinecap         % Prepare graphics state
1 setlinewidth 0 setlinejoin
10 setmiterlimit [ ] 0 setdash newpath
/languagelevel where           % If level not equal to 1 then
{pop languagelevel             % set strokeadjust and
1 ne                           % overprint to their defaults.
{false setstrokeadjust false setoverprint
} if
} if
} bd
/EndEPSF { %def
count op_count sub {pop} repeat            % Clean up stacks
countdictstack dict_count sub {end} repeat
b4_Inc_state restore
} bd
%%EndResource
%FOPBeginFontDict
%%IncludeResource: font Courier-Bold
%%IncludeResource: font Helvetica
%%IncludeResource: font Courier-BoldOblique
%%IncludeResource: font Courier-Oblique
%%IncludeResource: font Times-Roman
%%IncludeResource: font Helvetica-BoldOblique
%%IncludeResource: font Helvetica-Bold
%%IncludeResource: font Helvetica-Oblique
%%IncludeResource: font Times-BoldItalic
%%IncludeResource: font Courier
%%IncludeResource: font Times-Italic
%%IncludeResource: font Times-Bold
%%IncludeResource: font Symbol
%%IncludeResource: font ZapfDingbats
%FOPEndFontDict
%%BeginResource: encoding WinAnsiEncoding
/WinAnsiEncoding [
/.notdef /.notdef /.notdef /.notdef /.notdef
/.notdef /.notdef /.notdef /.notdef /.notdef
/.notdef /.notdef /.notdef /.notdef /.notdef
/.notdef /.notdef /.notdef /.notdef /.notdef
/.notdef /.notdef /.notdef /.notdef /.notdef
/.notdef /.notdef /.notdef /.notdef /.notdef
/.notdef /.notdef /space /exclam /quotedbl
/numbersign /dollar /percent /ampersand /quotesingle
/parenleft /parenright /asterisk /plus /comma
/hyphen /period /slash /zero /one
/two /three /four /five /six
/seven /eight /nine /colon /semicolon
/less /equal /greater /question /at
/A /B /C /D /E
/F /G /H /I /J
/K /L /M /N /O
/P /Q /R /S /T
/U /V /W /X /Y
/Z /bracketleft /backslash /bracketright /asciicircum
/underscore /quoteleft /a /b /c
/d /e /f /g /h
/i /j /k /l /m
/n /o /p /q /r
/s /t /u /v /w
/x /y /z /braceleft /bar
/braceright /asciitilde /bullet /Euro /bullet
/quotesinglbase /florin /quotedblbase /ellipsis /dagger
/daggerdbl /circumflex /perthousand /Scaron /guilsinglleft
/OE /bullet /Zcaron /bullet /bullet
/quoteleft /quoteright /quotedblleft /quotedblright /bullet
/endash /emdash /asciitilde /trademark /scaron
/guilsinglright /oe /bullet /zcaron /Ydieresis
/space /exclamdown /cent /sterling /currency
/yen /brokenbar /section /dieresis /copyright
/ordfeminine /guillemotleft /logicalnot /sfthyphen /registered
/macron /degree /plusminus /twosuperior /threesuperior
/acute /mu /paragraph /middot /cedilla
/onesuperior /ordmasculine /guillemotright /onequarter /onehalf
/threequarters /questiondown /Agrave /Aacute /Acircumflex
/Atilde /Adieresis /Aring /AE /Ccedilla
/Egrave /Eacute /Ecircumflex /Edieresis /Igrave
/Iacute /Icircumflex /Idieresis /Eth /Ntilde
/Ograve /Oacute /Ocircumflex /Otilde /Odieresis
/multiply /Oslash /Ugrave /Uacute /Ucircumflex
/Udieresis /Yacute /Thorn /germandbls /agrave
/aacute /acircumflex /atilde /adieresis /aring
/ae /ccedilla /egrave /eacute /ecircumflex
/edieresis /igrave /iacute /icircumflex /idieresis
/eth /ntilde /ograve /oacute /ocircumflex
/otilde /odieresis /divide /oslash /ugrave
/uacute /ucircumflex /udieresis /yacute /thorn
/ydieresis
] def
%%EndResource
%FOPBeginFontReencode
/Courier-Bold findfont
dup length dict begin
  {1 index /FID ne {def} {pop pop} ifelse} forall
  /Encoding WinAnsiEncoding def
  currentdict
end
/Courier-Bold exch definefont pop
/Helvetica findfont
dup length dict begin
  {1 index /FID ne {def} {pop pop} ifelse} forall
  /Encoding WinAnsiEncoding def
  currentdict
end
/Helvetica exch definefont pop
/Courier-BoldOblique findfont
dup length dict begin
  {1 index /FID ne {def} {pop pop} ifelse} forall
  /Encoding WinAnsiEncoding def
  currentdict
end
/Courier-BoldOblique exch definefont pop
/Courier-Oblique findfont
dup length dict begin
  {1 index /FID ne {def} {pop pop} ifelse} forall
  /Encoding WinAnsiEncoding def
  currentdict
end
/Courier-Oblique exch definefont pop
/Times-Roman findfont
dup length dict begin
  {1 index /FID ne {def} {pop pop} ifelse} forall
  /Encoding WinAnsiEncoding def
  currentdict
end
/Times-Roman exch definefont pop
/Helvetica-BoldOblique findfont
dup length dict begin
  {1 index /FID ne {def} {pop pop} ifelse} forall
  /Encoding WinAnsiEncoding def
  currentdict
end
/Helvetica-BoldOblique exch definefont pop
/Helvetica-Bold findfont
dup length dict begin
  {1 index /FID ne {def} {pop pop} ifelse} forall
  /Encoding WinAnsiEncoding def
  currentdict
end
/Helvetica-Bold exch definefont pop
/Helvetica-Oblique findfont
dup length dict begin
  {1 index /FID ne {def} {pop pop} ifelse} forall
  /Encoding WinAnsiEncoding def
  currentdict
end
/Helvetica-Oblique exch definefont pop
/Times-BoldItalic findfont
dup length dict begin
  {1 index /FID ne {def} {pop pop} ifelse} forall
  /Encoding WinAnsiEncoding def
  currentdict
end
/Times-BoldItalic exch definefont pop
/Courier findfont
dup length dict begin
  {1 index /FID ne {def} {pop pop} ifelse} forall
  /Encoding WinAnsiEncoding def
  currentdict
end
/Courier exch definefont pop
/Times-Italic findfont
dup length dict begin
  {1 index /FID ne {def} {pop pop} ifelse} forall
  /Encoding WinAnsiEncoding def
  currentdict
end
/Times-Italic exch definefont pop
/Times-Bold findfont
dup length dict begin
  {1 index /FID ne {def} {pop pop} ifelse} forall
  /Encoding WinAnsiEncoding def
  currentdict
end
/Times-Bold exch definefont pop
%FOPEndFontReencode
%%EndProlog
%%Page: 1 1
%%PageBoundingBox: 0 0 420 315
%%BeginPageSetup
[1 0 0 -1 0 315] CT
%%EndPageSetup
GS
[0.75 0 0 0.75 0 0] CT
1 GC
N
0 0 560 420 re
f
GR
GS
[0.75 0 0 0.75 0 0] CT
1 GC
N
0 0 560 420 re
f
GR
GS
[0.75 0 0 0.75 0 0] CT
1 GC
N
73 374 M
507 374 L
507 31 L
73 31 L
cp
f
GR
GS
[0.75 0 0 0.75 0 0] CT
0.149 GC
2 setlinecap
10.0 ML
N
73 374 M
507 374 L
S
GR
GS
[0.75 0 0 0.75 0 0] CT
0.149 GC
2 setlinecap
10.0 ML
N
73 31 M
507 31 L
S
GR
GS
[0.75 0 0 0.75 0 0] CT
0.149 GC
2 setlinecap
10.0 ML
N
73 374 M
73 369.66 L
S
GR
GS
[0.75 0 0 0.75 0 0] CT
0.149 GC
2 setlinecap
10.0 ML
N
73 31 M
73 35.34 L
S
GR
GS
[0.75 0 0 0.75 0 0] CT
0.149 GC
2 setlinecap
10.0 ML
N
145.333 374 M
145.333 369.66 L
S
GR
GS
[0.75 0 0 0.75 0 0] CT
0.149 GC
2 setlinecap
10.0 ML
N
145.333 31 M
145.333 35.34 L
S
GR
GS
[0.75 0 0 0.75 0 0] CT
0.149 GC
2 setlinecap
10.0 ML
N
217.667 374 M
217.667 369.66 L
S
GR
GS
[0.75 0 0 0.75 0 0] CT
0.149 GC
2 setlinecap
10.0 ML
N
217.667 31 M
217.667 35.34 L
S
GR
GS
[0.75 0 0 0.75 0 0] CT
0.149 GC
2 setlinecap
10.0 ML
N
290 374 M
290 369.66 L
S
GR
GS
[0.75 0 0 0.75 0 0] CT
0.149 GC
2 setlinecap
10.0 ML
N
290 31 M
290 35.34 L
S
GR
GS
[0.75 0 0 0.75 0 0] CT
0.149 GC
2 setlinecap
10.0 ML
N
362.333 374 M
362.333 369.66 L
S
GR
GS
[0.75 0 0 0.75 0 0] CT
0.149 GC
2 setlinecap
10.0 ML
N
362.333 31 M
362.333 35.34 L
S
GR
GS
[0.75 0 0 0.75 0 0] CT
0.149 GC
2 setlinecap
10.0 ML
N
434.667 374 M
434.667 369.66 L
S
GR
GS
[0.75 0 0 0.75 0 0] CT
0.149 GC
2 setlinecap
10.0 ML
N
434.667 31 M
434.667 35.34 L
S
GR
GS
[0.75 0 0 0.75 0 0] CT
0.149 GC
2 setlinecap
10.0 ML
N
507 374 M
507 369.66 L
S
GR
GS
[0.75 0 0 0.75 0 0] CT
0.149 GC
2 setlinecap
10.0 ML
N
507 31 M
507 35.34 L
S
GR
GS
[0.75 0 0 0.75 54.75 284.50001] CT
0.149 GC
/Helvetica 13 F
GS
[1 0 0 1 0 0] CT
-3.615 13.07 moveto 
1 -1 scale
(0) t 
GR
GR
GS
[0.75 0 0 0.75 109 284.50001] CT
0.149 GC
/Helvetica 13 F
GS
[1 0 0 1 0 0] CT
-10.845 13.07 moveto 
1 -1 scale
(100) t 
GR
GR
GS
[0.75 0 0 0.75 163.25 284.50001] CT
0.149 GC
/Helvetica 13 F
GS
[1 0 0 1 0 0] CT
-10.845 13.07 moveto 
1 -1 scale
(200) t 
GR
GR
GS
[0.75 0 0 0.75 217.5 284.50001] CT
0.149 GC
/Helvetica 13 F
GS
[1 0 0 1 0 0] CT
-10.845 13.07 moveto 
1 -1 scale
(300) t 
GR
GR
GS
[0.75 0 0 0.75 271.75001 284.50001] CT
0.149 GC
/Helvetica 13 F
GS
[1 0 0 1 0 0] CT
-10.845 13.07 moveto 
1 -1 scale
(400) t 
GR
GR
GS
[0.75 0 0 0.75 325.99999 284.50001] CT
0.149 GC
/Helvetica 13 F
GS
[1 0 0 1 0 0] CT
-10.845 13.07 moveto 
1 -1 scale
(500) t 
GR
GR
GS
[0.75 0 0 0.75 380.25 284.50001] CT
0.149 GC
/Helvetica 13 F
GS
[1 0 0 1 0 0] CT
-10.845 13.07 moveto 
1 -1 scale
(600) t 
GR
GR
GS
[0.75 0 0 0.75 0 0] CT
0.149 GC
2 setlinecap
10.0 ML
N
73 374 M
73 31 L
S
GR
GS
[0.75 0 0 0.75 0 0] CT
0.149 GC
2 setlinecap
10.0 ML
N
507 374 M
507 31 L
S
GR
GS
[0.75 0 0 0.75 0 0] CT
0.149 GC
2 setlinecap
10.0 ML
N
73 374 M
77.34 374 L
S
GR
GS
[0.75 0 0 0.75 0 0] CT
0.149 GC
2 setlinecap
10.0 ML
N
507 374 M
502.66 374 L
S
GR
GS
[0.75 0 0 0.75 0 0] CT
0.149 GC
2 setlinecap
10.0 ML
N
73 316.833 M
77.34 316.833 L
S
GR
GS
[0.75 0 0 0.75 0 0] CT
0.149 GC
2 setlinecap
10.0 ML
N
507 316.833 M
502.66 316.833 L
S
GR
GS
[0.75 0 0 0.75 0 0] CT
0.149 GC
2 setlinecap
10.0 ML
N
73 259.667 M
77.34 259.667 L
S
GR
GS
[0.75 0 0 0.75 0 0] CT
0.149 GC
2 setlinecap
10.0 ML
N
507 259.667 M
502.66 259.667 L
S
GR
GS
[0.75 0 0 0.75 0 0] CT
0.149 GC
2 setlinecap
10.0 ML
N
73 202.5 M
77.34 202.5 L
S
GR
GS
[0.75 0 0 0.75 0 0] CT
0.149 GC
2 setlinecap
10.0 ML
N
507 202.5 M
502.66 202.5 L
S
GR
GS
[0.75 0 0 0.75 0 0] CT
0.149 GC
2 setlinecap
10.0 ML
N
73 145.333 M
77.34 145.333 L
S
GR
GS
[0.75 0 0 0.75 0 0] CT
0.149 GC
2 setlinecap
10.0 ML
N
507 145.333 M
502.66 145.333 L
S
GR
GS
[0.75 0 0 0.75 0 0] CT
0.149 GC
2 setlinecap
10.0 ML
N
73 88.167 M
77.34 88.167 L
S
GR
GS
[0.75 0 0 0.75 0 0] CT
0.149 GC
2 setlinecap
10.0 ML
N
507 88.167 M
502.66 88.167 L
S
GR
GS
[0.75 0 0 0.75 0 0] CT
0.149 GC
2 setlinecap
10.0 ML
N
73 31 M
77.34 31 L
S
GR
GS
[0.75 0 0 0.75 0 0] CT
0.149 GC
2 setlinecap
10.0 ML
N
507 31 M
502.66 31 L
S
GR
GS
[0.75 0 0 0.75 50.75 280.5] CT
0.149 GC
/Helvetica 13 F
GS
[1 0 0 1 0 0] CT
-11.559 5.394 moveto 
1 -1 scale
(-3) t 
GR
GR
GS
[0.75 0 0 0.75 50.75 237.62501] CT
0.149 GC
/Helvetica 13 F
GS
[1 0 0 1 0 0] CT
-11.559 5.394 moveto 
1 -1 scale
(-2) t 
GR
GR
GS
[0.75 0 0 0.75 50.75 194.74999] CT
0.149 GC
/Helvetica 13 F
GS
[1 0 0 1 0 0] CT
-11.559 5.394 moveto 
1 -1 scale
(-1) t 
GR
GR
GS
[0.75 0 0 0.75 50.75 151.875] CT
0.149 GC
/Helvetica 13 F
GS
[1 0 0 1 0 0] CT
-7.23 5.394 moveto 
1 -1 scale
(0) t 
GR
GR
GS
[0.75 0 0 0.75 50.75 109] CT
0.149 GC
/Helvetica 13 F
GS
[1 0 0 1 0 0] CT
-7.23 5.394 moveto 
1 -1 scale
(1) t 
GR
GR
GS
[0.75 0 0 0.75 50.75 66.125] CT
0.149 GC
/Helvetica 13 F
GS
[1 0 0 1 0 0] CT
-7.23 5.394 moveto 
1 -1 scale
(2) t 
GR
GR
GS
[0.75 0 0 0.75 50.75 23.25] CT
0.149 GC
/Helvetica 13 F
GS
[1 0 0 1 0 0] CT
-7.23 5.394 moveto 
1 -1 scale
(3) t 
GR
GR
GS
[0.75 0 0 0.75 0 0] CT
0 0.447 0.741 RC
2 setlinecap
10.0 ML
N
73.723 274.322 M
74.447 239.632 L
75.17 266.613 L
75.893 282.031 L
76.617 285.885 L
77.34 284.921 L
78.063 321.539 L
78.787 305.157 L
79.51 318.648 L
80.233 336.957 L
80.957 301.303 L
81.68 352.374 L
82.403 326.357 L
83.127 344.665 L
83.85 335.993 L
84.573 341.775 L
85.297 319.612 L
86.02 312.866 L
86.743 321.539 L
87.467 271.431 L
88.19 278.176 L
88.913 330.211 L
89.637 256.977 L
90.36 264.686 L
91.083 324.43 L
91.807 245.413 L
92.53 247.341 L
93.253 272.394 L
93.977 237.704 L
94.7 279.14 L
95.423 289.74 L
96.147 264.686 L
96.87 256.977 L
97.593 286.849 L
98.317 250.231 L
99.04 256.013 L
99.763 286.849 L
100.487 256.977 L
101.21 241.559 L
101.933 297.448 L
102.657 259.867 L
103.38 252.159 L
104.103 309.012 L
104.827 244.45 L
105.55 254.086 L
106.273 269.504 L
106.997 254.086 L
107.72 293.594 L
108.443 294.558 L
109.167 290.703 L
109.89 295.521 L
110.613 316.721 L
111.337 263.722 L
112.06 248.304 L
112.783 303.23 L
113.507 265.649 L
114.23 269.504 L
114.953 287.812 L
115.677 298.412 L
116.4 287.812 L
117.123 308.048 L
117.847 283.958 L
118.57 271.431 L
119.293 318.648 L
120.017 275.285 L
120.74 255.049 L
121.463 284.921 L
122.187 248.304 L
122.91 282.031 L
123.633 319.612 L
124.357 305.157 L
125.08 321.539 L
125.803 348.52 L
126.527 306.121 L
127.25 318.648 L
127.973 348.52 L
128.697 272.394 L
129.42 281.067 L
130.143 301.303 L
130.867 297.448 L
131.59 304.194 L
132.313 312.866 L
133.037 256.977 L
133.76 241.559 L
134.483 289.74 L
135.207 289.74 L
135.93 281.067 L
136.653 298.412 L
137.377 243.486 L
138.1 245.413 L
138.823 274.322 L
139.547 222.287 L
140.27 212.65 L
140.993 252.159 L
141.717 203.014 L
142.44 185.669 L
143.163 251.195 L
143.887 164.47 L
144.61 168.324 L
145.333 237.704 L
146.057 158.688 L
146.78 167.361 L
147.503 242.522 L
148.227 149.052 L
148.95 146.161 L
149.673 247.341 L
150.397 216.505 L
151.12 219.396 L
151.843 292.63 L
152.567 212.65 L
153.29 194.342 L
154.013 266.613 L
154.737 176.997 L
155.46 171.215 L
156.183 239.632 L
156.907 177.96 L
157.63 204.942 L
158.353 251.195 L
159.077 211.687 L
159.8 209.76 L
160.523 245.413 L
161.247 200.123 L
161.97 242.522 L
162.693 290.703 L
163.417 248.304 L
164.14 249.268 L
164.863 287.812 L
165.587 237.704 L
166.31 227.105 L
167.033 265.649 L
167.757 200.123 L
168.48 223.25 L
169.203 260.831 L
169.927 192.415 L
170.65 184.706 L
171.373 251.195 L
172.097 176.033 L
172.82 178.924 L
173.543 235.777 L
174.267 169.288 L
174.99 160.615 L
175.713 224.214 L
176.437 157.724 L
177.16 152.906 L
177.883 199.16 L
178.607 151.943 L
179.33 153.87 L
180.053 215.541 L
180.777 150.016 L
181.5 152.906 L
182.223 211.687 L
182.947 121.107 L
183.67 140.379 L
184.393 196.269 L
185.117 123.998 L
185.84 146.161 L
186.563 201.087 L
187.287 99.908 L
188.01 103.762 L
188.733 169.288 L
189.457 113.398 L
190.18 194.342 L
190.903 206.869 L
191.627 209.76 L
192.35 237.704 L
193.073 260.831 L
193.797 195.305 L
194.52 206.869 L
195.243 282.031 L
195.967 202.051 L
196.69 197.233 L
197.413 267.576 L
198.137 194.342 L
198.86 171.215 L
199.583 225.177 L
200.307 165.433 L
201.03 168.324 L
201.753 245.413 L
202.477 237.704 L
203.2 229.032 L
203.923 288.776 L
204.647 232.886 L
205.37 230.959 L
206.093 272.394 L
206.817 242.522 L
207.54 269.504 L
208.263 282.031 L
208.987 233.85 L
209.71 228.068 L
210.433 284.921 L
211.157 235.777 L
211.88 240.595 L
212.603 286.849 L
213.327 236.741 L
214.05 224.214 L
214.773 287.812 L
215.497 208.796 L
216.22 217.468 L
216.943 269.504 L
217.667 257.94 L
218.39 251.195 L
219.113 270.467 L
219.837 225.177 L
220.56 222.287 L
221.283 270.467 L
222.007 212.65 L
222.73 251.195 L
223.453 262.758 L
224.177 213.614 L
224.9 192.415 L
225.623 232.886 L
226.347 164.47 L
227.07 183.742 L
227.793 237.704 L
228.517 153.87 L
229.24 169.288 L
229.963 208.796 L
230.687 120.143 L
231.41 111.471 L
232.133 193.378 L
232.857 113.398 L
233.58 119.18 L
234.303 175.069 L
235.027 105.689 L
235.75 134.598 L
236.473 172.179 L
237.197 125.925 L
237.92 117.253 L
238.643 209.76 L
239.367 121.107 L
240.09 124.962 L
240.813 206.869 L
241.537 121.107 L
242.26 133.634 L
242.983 210.723 L
243.707 126.889 L
244.43 121.107 L
245.153 208.796 L
245.877 120.143 L
246.6 106.653 L
247.323 180.851 L
248.047 99.908 L
248.77 87.381 L
249.493 161.579 L
250.217 158.688 L
250.94 171.215 L
251.663 223.25 L
252.387 208.796 L
253.11 179.888 L
253.833 217.468 L
254.557 150.016 L
255.28 133.634 L
256.003 217.468 L
256.727 155.797 L
257.45 136.525 L
258.173 210.723 L
258.897 128.816 L
259.62 134.598 L
260.343 218.432 L
261.067 159.652 L
261.79 167.361 L
262.513 212.65 L
263.237 184.706 L
263.96 210.723 L
264.683 247.341 L
265.407 208.796 L
266.13 209.76 L
266.853 212.65 L
267.577 250.231 L
268.3 187.596 L
269.023 248.304 L
269.747 168.324 L
270.47 189.524 L
271.193 221.323 L
271.917 165.433 L
272.64 183.742 L
273.363 227.105 L
274.087 199.16 L
274.81 178.924 L
275.533 229.995 L
276.257 159.652 L
276.98 152.906 L
277.703 217.468 L
278.427 141.343 L
279.15 142.307 L
279.873 207.832 L
280.597 113.398 L
281.32 112.435 L
282.043 187.596 L
282.767 96.053 L
283.49 107.617 L
284.213 153.87 L
284.937 169.288 L
285.66 182.778 L
286.383 203.978 L
287.107 159.652 L
287.83 175.069 L
288.553 199.16 L
289.277 197.233 L
290 203.978 L
290.723 224.214 L
291.447 151.943 L
292.17 139.416 L
292.893 183.742 L
293.617 145.197 L
294.34 121.107 L
295.063 199.16 L
295.787 163.506 L
296.51 155.797 L
297.233 222.287 L
297.957 149.052 L
298.68 145.197 L
299.403 227.105 L
300.127 179.888 L
300.85 154.834 L
301.573 223.25 L
302.297 135.561 L
303.02 103.762 L
303.743 181.815 L
304.467 179.888 L
305.19 142.307 L
305.913 203.978 L
306.637 116.289 L
307.36 103.762 L
308.083 176.997 L
308.807 150.979 L
309.53 142.307 L
310.253 212.65 L
310.977 139.416 L
311.7 112.435 L
312.423 197.233 L
313.147 100.871 L
313.87 105.689 L
314.593 179.888 L
315.317 81.599 L
316.04 77.744 L
316.763 167.361 L
317.487 62.327 L
318.21 62.327 L
318.933 156.761 L
319.657 87.381 L
320.38 71.963 L
321.103 137.489 L
321.827 87.381 L
322.55 105.689 L
323.273 177.96 L
323.997 105.689 L
324.72 97.017 L
325.443 156.761 L
326.167 129.78 L
326.89 136.525 L
327.613 202.051 L
328.337 137.489 L
329.06 134.598 L
329.783 200.123 L
330.507 132.67 L
331.23 137.489 L
331.953 204.942 L
332.677 127.852 L
333.4 141.343 L
334.123 188.56 L
334.847 197.233 L
335.57 194.342 L
336.293 233.85 L
337.017 188.56 L
337.74 216.505 L
338.463 256.013 L
339.187 184.706 L
339.91 160.615 L
340.633 237.704 L
341.357 164.47 L
342.08 169.288 L
342.803 208.796 L
343.527 143.27 L
344.25 119.18 L
344.973 201.087 L
345.697 156.761 L
346.42 133.634 L
347.143 208.796 L
347.867 136.525 L
348.59 117.253 L
349.313 186.633 L
350.037 111.471 L
350.76 107.617 L
351.483 182.778 L
352.207 131.707 L
352.93 124.962 L
353.653 186.633 L
354.377 137.489 L
355.1 134.598 L
355.823 195.305 L
356.547 124.962 L
357.27 150.979 L
357.993 186.633 L
358.717 216.505 L
359.44 171.215 L
360.163 217.468 L
360.887 156.761 L
361.61 161.579 L
362.333 203.014 L
363.057 161.579 L
363.78 159.652 L
364.503 222.287 L
365.227 175.069 L
365.95 173.142 L
366.673 201.087 L
367.397 139.416 L
368.12 155.797 L
368.843 179.888 L
369.567 145.197 L
370.29 163.506 L
371.013 196.269 L
371.737 154.834 L
372.46 159.652 L
373.183 216.505 L
373.907 154.834 L
374.63 187.596 L
375.353 241.559 L
376.077 166.397 L
376.8 164.47 L
377.523 237.704 L
378.247 127.852 L
378.97 127.852 L
379.693 199.16 L
380.417 108.58 L
381.14 132.67 L
381.863 183.742 L
382.587 146.161 L
383.31 130.743 L
384.033 232.886 L
384.757 166.397 L
385.48 146.161 L
386.203 213.614 L
386.927 158.688 L
387.65 147.125 L
388.373 231.923 L
389.097 139.416 L
389.82 150.979 L
390.543 206.869 L
391.267 168.324 L
391.99 208.796 L
392.713 227.105 L
393.437 161.579 L
394.16 199.16 L
394.883 214.578 L
395.607 200.123 L
396.33 202.051 L
397.053 255.049 L
397.777 197.233 L
398.5 187.596 L
399.223 255.049 L
399.947 200.123 L
400.67 185.669 L
401.393 202.051 L
402.117 161.579 L
402.84 157.724 L
403.563 203.014 L
404.287 189.524 L
405.01 186.633 L
405.733 245.413 L
406.457 176.033 L
407.18 176.033 L
407.903 240.595 L
408.627 208.796 L
409.35 203.014 L
410.073 248.304 L
410.797 208.796 L
411.52 206.869 L
412.243 229.032 L
412.967 182.778 L
413.69 179.888 L
414.413 241.559 L
415.137 166.397 L
415.86 157.724 L
416.583 224.214 L
417.307 140.379 L
418.03 134.598 L
418.753 208.796 L
419.477 127.852 L
420.2 140.379 L
420.923 198.196 L
421.647 150.016 L
422.37 189.524 L
423.093 212.65 L
423.817 223.25 L
424.54 220.359 L
425.263 234.814 L
425.987 190.487 L
426.71 181.815 L
427.433 205.905 L
428.157 182.778 L
428.88 188.56 L
429.603 207.832 L
430.327 173.142 L
431.05 196.269 L
431.773 221.323 L
432.497 203.014 L
433.22 196.269 L
433.943 233.85 L
434.667 223.25 L
435.39 228.068 L
436.113 208.796 L
436.837 177.96 L
437.56 178.924 L
438.283 183.742 L
439.007 183.742 L
439.73 176.997 L
440.453 192.415 L
441.177 174.106 L
441.9 178.924 L
442.623 218.432 L
443.347 148.088 L
444.07 174.106 L
444.793 198.196 L
445.517 174.106 L
446.24 194.342 L
446.963 251.195 L
447.687 160.615 L
448.41 184.706 L
449.133 243.486 L
449.857 117.253 L
450.58 143.27 L
451.303 193.378 L
452.027 186.633 L
452.75 210.723 L
453.473 242.522 L
454.197 203.014 L
454.92 196.269 L
455.643 218.432 L
456.367 176.033 L
457.09 178.924 L
457.813 216.505 L
458.537 164.47 L
459.26 176.997 L
459.983 241.559 L
460.707 187.596 L
461.43 186.633 L
462.153 207.832 L
462.877 193.378 L
463.6 221.323 L
464.323 244.45 L
465.047 220.359 L
465.77 218.432 L
466.493 270.467 L
467.217 205.905 L
467.94 211.687 L
468.663 258.904 L
469.387 225.177 L
470.11 222.287 L
S
GR
GS
[0.75 0 0 0.75 0 0] CT
1 0 0 RC
2 setlinecap
10.0 ML
N
73.723 285.806 M
74.447 285.806 L
75.17 285.806 L
75.893 285.806 L
76.617 285.806 L
77.34 285.806 L
78.063 285.806 L
78.787 285.806 L
79.51 285.806 L
80.233 285.806 L
80.957 285.806 L
81.68 285.806 L
82.403 285.806 L
83.127 285.806 L
83.85 285.806 L
84.573 285.806 L
85.297 285.806 L
86.02 285.806 L
86.743 285.806 L
87.467 285.806 L
88.19 285.806 L
88.913 285.806 L
89.637 285.806 L
90.36 285.806 L
91.083 285.806 L
91.807 285.806 L
92.53 285.806 L
93.253 285.806 L
93.977 285.806 L
94.7 285.806 L
95.423 285.806 L
96.147 285.806 L
96.87 285.806 L
97.593 285.806 L
98.317 285.806 L
99.04 285.806 L
99.763 285.806 L
100.487 285.806 L
101.21 285.806 L
101.933 285.806 L
102.657 285.806 L
103.38 285.806 L
104.103 285.806 L
104.827 285.806 L
105.55 285.806 L
106.273 285.806 L
106.997 285.806 L
107.72 285.806 L
108.443 285.806 L
109.167 285.806 L
109.89 285.806 L
110.613 285.806 L
111.337 285.806 L
112.06 285.806 L
112.783 285.806 L
113.507 285.806 L
114.23 285.806 L
114.953 285.806 L
115.677 285.806 L
116.4 285.806 L
117.123 285.806 L
117.847 248.81 L
118.57 248.81 L
119.293 248.81 L
120.017 248.81 L
120.74 248.81 L
121.463 248.81 L
122.187 248.81 L
122.91 248.81 L
123.633 248.81 L
124.357 248.81 L
125.08 248.81 L
125.803 248.81 L
126.527 248.81 L
127.25 248.81 L
127.973 248.81 L
128.697 248.81 L
129.42 248.81 L
130.143 248.81 L
130.867 248.81 L
131.59 248.81 L
132.313 248.81 L
133.037 248.81 L
133.76 248.81 L
134.483 248.81 L
135.207 248.81 L
135.93 248.81 L
136.653 248.81 L
137.377 248.81 L
138.1 248.81 L
138.823 248.81 L
139.547 248.81 L
140.27 248.81 L
140.993 248.81 L
141.717 248.81 L
142.44 248.81 L
143.163 248.81 L
143.887 248.81 L
144.61 248.81 L
145.333 248.81 L
146.057 248.81 L
146.78 248.81 L
147.503 248.81 L
148.227 248.81 L
148.95 248.81 L
149.673 248.81 L
150.397 248.81 L
151.12 248.81 L
151.843 248.81 L
152.567 248.81 L
153.29 248.81 L
154.013 248.81 L
154.737 248.81 L
155.46 248.81 L
156.183 248.81 L
156.907 248.81 L
157.63 248.81 L
158.353 248.81 L
159.077 248.81 L
159.8 248.81 L
160.523 248.81 L
161.247 248.81 L
161.97 201.924 L
162.693 201.924 L
163.417 201.924 L
164.14 201.924 L
164.863 201.924 L
165.587 201.924 L
166.31 201.924 L
167.033 201.924 L
167.757 201.924 L
168.48 201.924 L
169.203 201.924 L
169.927 201.924 L
170.65 201.924 L
171.373 201.924 L
172.097 201.924 L
172.82 201.924 L
173.543 201.924 L
174.267 201.924 L
174.99 201.924 L
175.713 201.924 L
176.437 201.924 L
177.16 201.924 L
177.883 201.924 L
178.607 201.924 L
179.33 201.924 L
180.053 201.924 L
180.777 201.924 L
181.5 201.924 L
182.223 201.924 L
182.947 201.924 L
183.67 201.924 L
184.393 201.924 L
185.117 201.924 L
185.84 201.924 L
186.563 201.924 L
187.287 201.924 L
188.01 201.924 L
188.733 201.924 L
189.457 201.924 L
190.18 201.924 L
190.903 201.924 L
191.627 201.924 L
192.35 201.924 L
193.073 201.924 L
193.797 201.924 L
194.52 201.924 L
195.243 201.924 L
195.967 201.924 L
196.69 201.924 L
197.413 201.924 L
198.137 201.924 L
198.86 201.924 L
199.583 201.924 L
200.307 201.924 L
201.03 201.924 L
201.753 201.924 L
202.477 201.924 L
203.2 201.924 L
203.923 201.924 L
204.647 201.924 L
205.37 201.924 L
206.093 193.963 L
206.817 193.963 L
207.54 193.963 L
208.263 193.963 L
208.987 193.963 L
209.71 193.963 L
210.433 193.963 L
211.157 193.963 L
211.88 193.963 L
212.603 193.963 L
213.327 193.963 L
214.05 193.963 L
214.773 193.963 L
215.497 193.963 L
216.22 193.963 L
216.943 193.963 L
217.667 193.963 L
218.39 193.963 L
219.113 193.963 L
219.837 193.963 L
220.56 193.963 L
221.283 193.963 L
222.007 193.963 L
222.73 193.963 L
223.453 193.963 L
224.177 193.963 L
224.9 193.963 L
225.623 193.963 L
226.347 193.963 L
227.07 193.963 L
227.793 193.963 L
228.517 193.963 L
229.24 193.963 L
229.963 193.963 L
230.687 193.963 L
231.41 193.963 L
232.133 193.963 L
232.857 193.963 L
233.58 193.963 L
234.303 193.963 L
235.027 193.963 L
235.75 193.963 L
236.473 193.963 L
237.197 193.963 L
237.92 193.963 L
238.643 193.963 L
239.367 193.963 L
240.09 193.963 L
240.813 193.963 L
241.537 193.963 L
242.26 193.963 L
242.983 193.963 L
243.707 193.963 L
244.43 193.963 L
245.153 193.963 L
245.877 193.963 L
246.6 193.963 L
247.323 193.963 L
248.047 193.963 L
248.77 193.963 L
249.493 193.963 L
250.217 180.93 L
250.94 180.93 L
251.663 180.93 L
252.387 180.93 L
253.11 180.93 L
253.833 180.93 L
254.557 180.93 L
255.28 180.93 L
256.003 180.93 L
256.727 180.93 L
257.45 180.93 L
258.173 180.93 L
258.897 180.93 L
259.62 180.93 L
260.343 180.93 L
261.067 180.93 L
261.79 180.93 L
262.513 180.93 L
263.237 180.93 L
263.96 180.93 L
264.683 180.93 L
265.407 180.93 L
266.13 180.93 L
266.853 180.93 L
267.577 180.93 L
268.3 180.93 L
269.023 180.93 L
269.747 180.93 L
270.47 180.93 L
271.193 180.93 L
271.917 180.93 L
272.64 180.93 L
273.363 180.93 L
274.087 180.93 L
274.81 180.93 L
275.533 180.93 L
276.257 180.93 L
276.98 180.93 L
277.703 180.93 L
278.427 180.93 L
279.15 180.93 L
279.873 180.93 L
280.597 180.93 L
281.32 180.93 L
282.043 180.93 L
282.767 180.93 L
283.49 180.93 L
284.213 180.93 L
284.937 180.93 L
285.66 180.93 L
286.383 180.93 L
287.107 180.93 L
287.83 180.93 L
288.553 180.93 L
289.277 180.93 L
290 180.93 L
290.723 180.93 L
291.447 180.93 L
292.17 180.93 L
292.893 180.93 L
293.617 180.93 L
294.34 150.268 L
295.063 150.268 L
295.787 150.268 L
296.51 150.268 L
297.233 150.268 L
297.957 150.268 L
298.68 150.268 L
299.403 150.268 L
300.127 150.268 L
300.85 150.268 L
301.573 150.268 L
302.297 150.268 L
303.02 150.268 L
303.743 150.268 L
304.467 150.268 L
305.19 150.268 L
305.913 150.268 L
306.637 150.268 L
307.36 150.268 L
308.083 150.268 L
308.807 150.268 L
309.53 150.268 L
310.253 150.268 L
310.977 150.268 L
311.7 150.268 L
312.423 150.268 L
313.147 150.268 L
313.87 150.268 L
314.593 150.268 L
315.317 150.268 L
316.04 150.268 L
316.763 150.268 L
317.487 150.268 L
318.21 150.268 L
318.933 150.268 L
319.657 150.268 L
320.38 150.268 L
321.103 150.268 L
321.827 150.268 L
322.55 150.268 L
323.273 150.268 L
323.997 150.268 L
324.72 150.268 L
325.443 150.268 L
326.167 150.268 L
326.89 150.268 L
327.613 150.268 L
328.337 150.268 L
329.06 150.268 L
329.783 150.268 L
330.507 150.268 L
331.23 150.268 L
331.953 150.268 L
332.677 150.268 L
333.4 150.268 L
334.123 150.268 L
334.847 150.268 L
335.57 150.268 L
336.293 150.268 L
337.017 150.268 L
337.74 150.268 L
338.463 169.225 L
339.187 169.225 L
339.91 169.225 L
340.633 169.225 L
341.357 169.225 L
342.08 169.225 L
342.803 169.225 L
343.527 169.225 L
344.25 169.225 L
344.973 169.225 L
345.697 169.225 L
346.42 169.225 L
347.143 169.225 L
347.867 169.225 L
348.59 169.225 L
349.313 169.225 L
350.037 169.225 L
350.76 169.225 L
351.483 169.225 L
352.207 169.225 L
352.93 169.225 L
353.653 169.225 L
354.377 169.225 L
355.1 169.225 L
355.823 169.225 L
356.547 169.225 L
357.27 169.225 L
357.993 169.225 L
358.717 169.225 L
359.44 169.225 L
360.163 169.225 L
360.887 169.225 L
361.61 169.225 L
362.333 169.225 L
363.057 169.225 L
363.78 169.225 L
364.503 169.225 L
365.227 169.225 L
365.95 169.225 L
366.673 169.225 L
367.397 169.225 L
368.12 169.225 L
368.843 169.225 L
369.567 169.225 L
370.29 169.225 L
371.013 169.225 L
371.737 169.225 L
372.46 169.225 L
373.183 169.225 L
373.907 169.225 L
374.63 169.225 L
375.353 169.225 L
376.077 169.225 L
376.8 169.225 L
377.523 169.225 L
378.247 169.225 L
378.97 169.225 L
379.693 169.225 L
380.417 169.225 L
381.14 169.225 L
381.863 169.225 L
382.587 191.814 L
383.31 191.814 L
384.033 191.814 L
384.757 191.814 L
385.48 191.814 L
386.203 191.814 L
386.927 191.814 L
387.65 191.814 L
388.373 191.814 L
389.097 191.814 L
389.82 191.814 L
390.543 191.814 L
391.267 191.814 L
391.99 191.814 L
392.713 191.814 L
393.437 191.814 L
394.16 191.814 L
394.883 191.814 L
395.607 191.814 L
396.33 191.814 L
397.053 191.814 L
397.777 191.814 L
398.5 191.814 L
399.223 191.814 L
399.947 191.814 L
400.67 191.814 L
401.393 191.814 L
402.117 191.814 L
402.84 191.814 L
403.563 191.814 L
404.287 191.814 L
405.01 191.814 L
405.733 191.814 L
406.457 191.814 L
407.18 191.814 L
407.903 191.814 L
408.627 191.814 L
409.35 191.814 L
410.073 191.814 L
410.797 191.814 L
411.52 191.814 L
412.243 191.814 L
412.967 191.814 L
413.69 191.814 L
414.413 191.814 L
415.137 191.814 L
415.86 191.814 L
416.583 191.814 L
417.307 191.814 L
418.03 191.814 L
418.753 191.814 L
419.477 191.814 L
420.2 191.814 L
420.923 191.814 L
421.647 191.814 L
422.37 191.814 L
423.093 191.814 L
423.817 191.814 L
424.54 191.814 L
425.263 191.814 L
425.987 191.814 L
426.71 199.76 L
427.433 199.76 L
428.157 199.76 L
428.88 199.76 L
429.603 199.76 L
430.327 199.76 L
431.05 199.76 L
431.773 199.76 L
432.497 199.76 L
433.22 199.76 L
433.943 199.76 L
434.667 199.76 L
435.39 199.76 L
436.113 199.76 L
436.837 199.76 L
437.56 199.76 L
438.283 199.76 L
439.007 199.76 L
439.73 199.76 L
440.453 199.76 L
441.177 199.76 L
441.9 199.76 L
442.623 199.76 L
443.347 199.76 L
444.07 199.76 L
444.793 199.76 L
445.517 199.76 L
446.24 199.76 L
446.963 199.76 L
447.687 199.76 L
448.41 199.76 L
449.133 199.76 L
449.857 199.76 L
450.58 199.76 L
451.303 199.76 L
452.027 199.76 L
452.75 199.76 L
453.473 199.76 L
454.197 199.76 L
454.92 199.76 L
455.643 199.76 L
456.367 199.76 L
457.09 199.76 L
457.813 199.76 L
458.537 199.76 L
459.26 199.76 L
459.983 199.76 L
460.707 199.76 L
461.43 199.76 L
462.153 199.76 L
462.877 199.76 L
463.6 199.76 L
464.323 199.76 L
465.047 199.76 L
465.77 199.76 L
466.493 199.76 L
467.217 199.76 L
467.94 199.76 L
468.663 199.76 L
469.387 199.76 L
470.11 199.76 L
S
GR
GS
[0.75 0 0 0.75 0 0] CT
0.8 GC
2 setlinecap
10.0 ML
N
73.723 240.802 M
74.447 240.802 L
75.17 240.802 L
75.893 240.802 L
76.617 240.802 L
77.34 240.802 L
78.063 240.802 L
78.787 240.802 L
79.51 240.802 L
80.233 240.802 L
80.957 240.802 L
81.68 240.802 L
82.403 240.802 L
83.127 240.802 L
83.85 240.802 L
84.573 240.802 L
85.297 240.802 L
86.02 240.802 L
86.743 240.802 L
87.467 240.802 L
88.19 240.802 L
88.913 240.802 L
89.637 240.802 L
90.36 240.802 L
91.083 240.802 L
91.807 240.802 L
92.53 240.802 L
93.253 240.802 L
93.977 240.802 L
94.7 240.802 L
95.423 240.802 L
96.147 240.802 L
96.87 240.802 L
97.593 240.802 L
98.317 240.802 L
99.04 240.802 L
99.763 240.802 L
100.487 240.802 L
101.21 240.802 L
101.933 240.802 L
102.657 240.802 L
103.38 240.802 L
104.103 240.802 L
104.827 240.802 L
105.55 240.802 L
106.273 240.802 L
106.997 240.802 L
107.72 240.802 L
108.443 240.802 L
109.167 240.802 L
109.89 240.802 L
110.613 240.802 L
111.337 240.802 L
112.06 240.802 L
112.783 240.802 L
113.507 240.802 L
114.23 240.802 L
114.953 240.802 L
115.677 240.802 L
116.4 240.802 L
117.123 240.802 L
117.847 240.802 L
118.57 240.802 L
119.293 240.802 L
120.017 240.802 L
120.74 240.802 L
121.463 240.802 L
122.187 240.802 L
122.91 240.802 L
123.633 240.802 L
124.357 240.802 L
125.08 240.802 L
125.803 240.802 L
126.527 240.802 L
127.25 240.802 L
127.973 240.802 L
128.697 240.802 L
129.42 240.802 L
130.143 240.802 L
130.867 240.802 L
131.59 240.802 L
132.313 240.802 L
133.037 240.802 L
133.76 240.802 L
134.483 240.802 L
135.207 240.802 L
135.93 240.802 L
136.653 240.802 L
137.377 240.802 L
138.1 240.802 L
138.823 240.802 L
139.547 240.802 L
140.27 240.802 L
140.993 240.802 L
141.717 240.802 L
142.44 240.802 L
143.163 240.802 L
143.887 240.802 L
144.61 240.802 L
145.333 240.802 L
146.057 240.802 L
146.78 240.802 L
147.503 240.802 L
148.227 240.802 L
148.95 240.802 L
149.673 240.802 L
150.397 240.802 L
151.12 240.802 L
151.843 240.802 L
152.567 240.802 L
153.29 240.802 L
154.013 240.802 L
154.737 240.802 L
155.46 240.802 L
156.183 240.802 L
156.907 240.802 L
157.63 240.802 L
158.353 240.802 L
159.077 240.802 L
159.8 240.802 L
160.523 240.802 L
161.247 240.802 L
161.97 240.802 L
162.693 240.802 L
163.417 240.802 L
164.14 240.802 L
164.863 240.802 L
165.587 240.802 L
166.31 240.802 L
167.033 240.802 L
167.757 240.802 L
168.48 240.802 L
169.203 240.802 L
169.927 240.802 L
170.65 240.802 L
171.373 240.802 L
172.097 240.802 L
172.82 240.802 L
173.543 240.802 L
174.267 240.802 L
174.99 240.802 L
175.713 240.802 L
176.437 240.802 L
177.16 240.802 L
177.883 240.802 L
178.607 240.802 L
179.33 240.802 L
180.053 240.802 L
180.777 240.802 L
181.5 240.802 L
182.223 240.802 L
182.947 240.802 L
183.67 240.802 L
184.393 240.802 L
185.117 240.802 L
185.84 240.802 L
186.563 240.802 L
187.287 240.802 L
188.01 240.802 L
188.733 240.802 L
189.457 240.802 L
190.18 240.802 L
190.903 240.802 L
191.627 240.802 L
192.35 240.802 L
193.073 240.802 L
193.797 240.802 L
194.52 240.802 L
195.243 240.802 L
195.967 240.802 L
196.69 240.802 L
197.413 240.802 L
198.137 240.802 L
198.86 240.802 L
199.583 240.802 L
200.307 240.802 L
201.03 240.802 L
201.753 240.802 L
202.477 240.802 L
203.2 240.802 L
203.923 240.802 L
204.647 240.802 L
205.37 240.802 L
206.093 240.802 L
206.817 240.802 L
207.54 240.802 L
208.263 240.802 L
208.987 240.802 L
209.71 240.802 L
210.433 240.802 L
211.157 240.802 L
211.88 240.802 L
212.603 240.802 L
213.327 240.802 L
214.05 240.802 L
214.773 240.802 L
215.497 240.802 L
216.22 240.802 L
216.943 240.802 L
217.667 240.802 L
218.39 240.802 L
219.113 240.802 L
219.837 240.802 L
220.56 240.802 L
221.283 240.802 L
222.007 240.802 L
222.73 240.802 L
223.453 240.802 L
224.177 240.802 L
224.9 240.802 L
225.623 240.802 L
226.347 240.802 L
227.07 240.802 L
227.793 240.802 L
228.517 240.802 L
229.24 240.802 L
229.963 240.802 L
230.687 240.802 L
231.41 240.802 L
232.133 240.802 L
232.857 240.802 L
233.58 240.802 L
234.303 240.802 L
235.027 240.802 L
235.75 240.802 L
236.473 240.802 L
237.197 240.802 L
237.92 240.802 L
238.643 240.802 L
239.367 240.802 L
240.09 240.802 L
240.813 240.802 L
241.537 240.802 L
242.26 240.802 L
242.983 240.802 L
243.707 240.802 L
244.43 240.802 L
245.153 240.802 L
245.877 240.802 L
246.6 240.802 L
247.323 240.802 L
248.047 240.802 L
248.77 240.802 L
249.493 240.802 L
250.217 240.802 L
250.94 240.802 L
251.663 240.802 L
252.387 240.802 L
253.11 240.802 L
253.833 240.802 L
254.557 240.802 L
255.28 240.802 L
256.003 240.802 L
256.727 240.802 L
257.45 240.802 L
258.173 240.802 L
258.897 240.802 L
259.62 240.802 L
260.343 240.802 L
261.067 240.802 L
261.79 240.802 L
262.513 240.802 L
263.237 240.802 L
263.96 240.802 L
264.683 240.802 L
265.407 240.802 L
266.13 240.802 L
266.853 240.802 L
267.577 240.802 L
268.3 240.802 L
269.023 240.802 L
269.747 240.802 L
270.47 240.802 L
271.193 240.802 L
271.917 240.802 L
272.64 240.802 L
273.363 240.802 L
274.087 240.802 L
274.81 240.802 L
275.533 240.802 L
276.257 240.802 L
276.98 240.802 L
277.703 240.802 L
278.427 240.802 L
279.15 240.802 L
279.873 240.802 L
280.597 240.802 L
281.32 240.802 L
282.043 240.802 L
282.767 240.802 L
283.49 240.802 L
284.213 240.802 L
284.937 240.802 L
285.66 240.802 L
286.383 240.802 L
287.107 240.802 L
287.83 240.802 L
288.553 240.802 L
289.277 240.802 L
290 240.802 L
290.723 240.802 L
291.447 240.802 L
292.17 240.802 L
292.893 240.802 L
293.617 240.802 L
294.34 240.802 L
295.063 240.802 L
295.787 240.802 L
296.51 240.802 L
297.233 240.802 L
297.957 240.802 L
298.68 240.802 L
299.403 240.802 L
300.127 240.802 L
300.85 240.802 L
301.573 240.802 L
302.297 240.802 L
303.02 240.802 L
303.743 240.802 L
304.467 240.802 L
305.19 240.802 L
305.913 240.802 L
306.637 240.802 L
307.36 240.802 L
308.083 240.802 L
308.807 240.802 L
309.53 240.802 L
310.253 240.802 L
310.977 240.802 L
311.7 240.802 L
312.423 240.802 L
313.147 240.802 L
313.87 240.802 L
314.593 240.802 L
315.317 240.802 L
316.04 240.802 L
316.763 240.802 L
317.487 240.802 L
318.21 240.802 L
318.933 240.802 L
319.657 240.802 L
320.38 240.802 L
321.103 240.802 L
321.827 240.802 L
322.55 240.802 L
323.273 240.802 L
323.997 240.802 L
324.72 240.802 L
325.443 240.802 L
326.167 240.802 L
326.89 240.802 L
327.613 240.802 L
328.337 240.802 L
329.06 240.802 L
329.783 240.802 L
330.507 240.802 L
331.23 240.802 L
331.953 240.802 L
332.677 240.802 L
333.4 240.802 L
334.123 240.802 L
334.847 240.802 L
335.57 240.802 L
336.293 240.802 L
337.017 240.802 L
337.74 240.802 L
338.463 240.802 L
339.187 240.802 L
339.91 240.802 L
340.633 240.802 L
341.357 240.802 L
342.08 240.802 L
342.803 240.802 L
343.527 240.802 L
344.25 240.802 L
344.973 240.802 L
345.697 240.802 L
346.42 240.802 L
347.143 240.802 L
347.867 240.802 L
348.59 240.802 L
349.313 240.802 L
350.037 240.802 L
350.76 240.802 L
351.483 240.802 L
352.207 240.802 L
352.93 240.802 L
353.653 240.802 L
354.377 240.802 L
355.1 240.802 L
355.823 240.802 L
356.547 240.802 L
357.27 240.802 L
357.993 240.802 L
358.717 240.802 L
359.44 240.802 L
360.163 240.802 L
360.887 240.802 L
361.61 240.802 L
362.333 240.802 L
363.057 240.802 L
363.78 240.802 L
364.503 240.802 L
365.227 240.802 L
365.95 240.802 L
366.673 240.802 L
367.397 240.802 L
368.12 240.802 L
368.843 240.802 L
369.567 240.802 L
370.29 240.802 L
371.013 240.802 L
371.737 240.802 L
372.46 240.802 L
373.183 240.802 L
373.907 240.802 L
374.63 240.802 L
375.353 240.802 L
376.077 240.802 L
376.8 240.802 L
377.523 240.802 L
378.247 240.802 L
378.97 240.802 L
379.693 240.802 L
380.417 240.802 L
381.14 240.802 L
381.863 240.802 L
382.587 240.802 L
383.31 240.802 L
384.033 240.802 L
384.757 240.802 L
385.48 240.802 L
386.203 240.802 L
386.927 240.802 L
387.65 240.802 L
388.373 240.802 L
389.097 240.802 L
389.82 240.802 L
390.543 240.802 L
391.267 240.802 L
391.99 240.802 L
392.713 240.802 L
393.437 240.802 L
394.16 240.802 L
394.883 240.802 L
395.607 240.802 L
396.33 240.802 L
397.053 240.802 L
397.777 240.802 L
398.5 240.802 L
399.223 240.802 L
399.947 240.802 L
400.67 240.802 L
401.393 240.802 L
402.117 240.802 L
402.84 240.802 L
403.563 240.802 L
404.287 240.802 L
405.01 240.802 L
405.733 240.802 L
406.457 240.802 L
407.18 240.802 L
407.903 240.802 L
408.627 240.802 L
409.35 240.802 L
410.073 240.802 L
410.797 240.802 L
411.52 240.802 L
412.243 240.802 L
412.967 240.802 L
413.69 240.802 L
414.413 240.802 L
415.137 240.802 L
415.86 240.802 L
416.583 240.802 L
417.307 240.802 L
418.03 240.802 L
418.753 240.802 L
419.477 240.802 L
420.2 240.802 L
420.923 240.802 L
421.647 240.802 L
422.37 240.802 L
423.093 240.802 L
423.817 240.802 L
424.54 240.802 L
425.263 240.802 L
425.987 240.802 L
426.71 240.802 L
427.433 240.802 L
428.157 240.802 L
428.88 240.802 L
429.603 240.802 L
430.327 240.802 L
431.05 240.802 L
431.773 240.802 L
432.497 240.802 L
433.22 240.802 L
433.943 240.802 L
434.667 240.802 L
435.39 240.802 L
436.113 240.802 L
436.837 240.802 L
437.56 240.802 L
438.283 240.802 L
439.007 240.802 L
439.73 240.802 L
440.453 240.802 L
441.177 240.802 L
441.9 240.802 L
442.623 240.802 L
443.347 240.802 L
444.07 240.802 L
444.793 240.802 L
445.517 240.802 L
446.24 240.802 L
446.963 240.802 L
447.687 240.802 L
448.41 240.802 L
449.133 240.802 L
449.857 240.802 L
450.58 240.802 L
451.303 240.802 L
452.027 240.802 L
452.75 240.802 L
453.473 240.802 L
454.197 240.802 L
454.92 240.802 L
455.643 240.802 L
456.367 240.802 L
457.09 240.802 L
457.813 240.802 L
458.537 240.802 L
459.26 240.802 L
459.983 240.802 L
460.707 240.802 L
461.43 240.802 L
462.153 240.802 L
462.877 240.802 L
463.6 240.802 L
464.323 240.802 L
465.047 240.802 L
465.77 240.802 L
466.493 240.802 L
467.217 240.802 L
467.94 240.802 L
468.663 240.802 L
469.387 240.802 L
470.11 240.802 L
S
GR
GS
[0.75 0 0 0.75 0 0] CT
0.8 GC
2 setlinecap
10.0 ML
N
73.723 202.5 M
74.447 202.5 L
75.17 202.5 L
75.893 202.5 L
76.617 202.5 L
77.34 202.5 L
78.063 202.5 L
78.787 202.5 L
79.51 202.5 L
80.233 202.5 L
80.957 202.5 L
81.68 202.5 L
82.403 202.5 L
83.127 202.5 L
83.85 202.5 L
84.573 202.5 L
85.297 202.5 L
86.02 202.5 L
86.743 202.5 L
87.467 202.5 L
88.19 202.5 L
88.913 202.5 L
89.637 202.5 L
90.36 202.5 L
91.083 202.5 L
91.807 202.5 L
92.53 202.5 L
93.253 202.5 L
93.977 202.5 L
94.7 202.5 L
95.423 202.5 L
96.147 202.5 L
96.87 202.5 L
97.593 202.5 L
98.317 202.5 L
99.04 202.5 L
99.763 202.5 L
100.487 202.5 L
101.21 202.5 L
101.933 202.5 L
102.657 202.5 L
103.38 202.5 L
104.103 202.5 L
104.827 202.5 L
105.55 202.5 L
106.273 202.5 L
106.997 202.5 L
107.72 202.5 L
108.443 202.5 L
109.167 202.5 L
109.89 202.5 L
110.613 202.5 L
111.337 202.5 L
112.06 202.5 L
112.783 202.5 L
113.507 202.5 L
114.23 202.5 L
114.953 202.5 L
115.677 202.5 L
116.4 202.5 L
117.123 202.5 L
117.847 202.5 L
118.57 202.5 L
119.293 202.5 L
120.017 202.5 L
120.74 202.5 L
121.463 202.5 L
122.187 202.5 L
122.91 202.5 L
123.633 202.5 L
124.357 202.5 L
125.08 202.5 L
125.803 202.5 L
126.527 202.5 L
127.25 202.5 L
127.973 202.5 L
128.697 202.5 L
129.42 202.5 L
130.143 202.5 L
130.867 202.5 L
131.59 202.5 L
132.313 202.5 L
133.037 202.5 L
133.76 202.5 L
134.483 202.5 L
135.207 202.5 L
135.93 202.5 L
136.653 202.5 L
137.377 202.5 L
138.1 202.5 L
138.823 202.5 L
139.547 202.5 L
140.27 202.5 L
140.993 202.5 L
141.717 202.5 L
142.44 202.5 L
143.163 202.5 L
143.887 202.5 L
144.61 202.5 L
145.333 202.5 L
146.057 202.5 L
146.78 202.5 L
147.503 202.5 L
148.227 202.5 L
148.95 202.5 L
149.673 202.5 L
150.397 202.5 L
151.12 202.5 L
151.843 202.5 L
152.567 202.5 L
153.29 202.5 L
154.013 202.5 L
154.737 202.5 L
155.46 202.5 L
156.183 202.5 L
156.907 202.5 L
157.63 202.5 L
158.353 202.5 L
159.077 202.5 L
159.8 202.5 L
160.523 202.5 L
161.247 202.5 L
161.97 202.5 L
162.693 202.5 L
163.417 202.5 L
164.14 202.5 L
164.863 202.5 L
165.587 202.5 L
166.31 202.5 L
167.033 202.5 L
167.757 202.5 L
168.48 202.5 L
169.203 202.5 L
169.927 202.5 L
170.65 202.5 L
171.373 202.5 L
172.097 202.5 L
172.82 202.5 L
173.543 202.5 L
174.267 202.5 L
174.99 202.5 L
175.713 202.5 L
176.437 202.5 L
177.16 202.5 L
177.883 202.5 L
178.607 202.5 L
179.33 202.5 L
180.053 202.5 L
180.777 202.5 L
181.5 202.5 L
182.223 202.5 L
182.947 202.5 L
183.67 202.5 L
184.393 202.5 L
185.117 202.5 L
185.84 202.5 L
186.563 202.5 L
187.287 202.5 L
188.01 202.5 L
188.733 202.5 L
189.457 202.5 L
190.18 202.5 L
190.903 202.5 L
191.627 202.5 L
192.35 202.5 L
193.073 202.5 L
193.797 202.5 L
194.52 202.5 L
195.243 202.5 L
195.967 202.5 L
196.69 202.5 L
197.413 202.5 L
198.137 202.5 L
198.86 202.5 L
199.583 202.5 L
200.307 202.5 L
201.03 202.5 L
201.753 202.5 L
202.477 202.5 L
203.2 202.5 L
203.923 202.5 L
204.647 202.5 L
205.37 202.5 L
206.093 202.5 L
206.817 202.5 L
207.54 202.5 L
208.263 202.5 L
208.987 202.5 L
209.71 202.5 L
210.433 202.5 L
211.157 202.5 L
211.88 202.5 L
212.603 202.5 L
213.327 202.5 L
214.05 202.5 L
214.773 202.5 L
215.497 202.5 L
216.22 202.5 L
216.943 202.5 L
217.667 202.5 L
218.39 202.5 L
219.113 202.5 L
219.837 202.5 L
220.56 202.5 L
221.283 202.5 L
222.007 202.5 L
222.73 202.5 L
223.453 202.5 L
224.177 202.5 L
224.9 202.5 L
225.623 202.5 L
226.347 202.5 L
227.07 202.5 L
227.793 202.5 L
228.517 202.5 L
229.24 202.5 L
229.963 202.5 L
230.687 202.5 L
231.41 202.5 L
232.133 202.5 L
232.857 202.5 L
233.58 202.5 L
234.303 202.5 L
235.027 202.5 L
235.75 202.5 L
236.473 202.5 L
237.197 202.5 L
237.92 202.5 L
238.643 202.5 L
239.367 202.5 L
240.09 202.5 L
240.813 202.5 L
241.537 202.5 L
242.26 202.5 L
242.983 202.5 L
243.707 202.5 L
244.43 202.5 L
245.153 202.5 L
245.877 202.5 L
246.6 202.5 L
247.323 202.5 L
248.047 202.5 L
248.77 202.5 L
249.493 202.5 L
250.217 202.5 L
250.94 202.5 L
251.663 202.5 L
252.387 202.5 L
253.11 202.5 L
253.833 202.5 L
254.557 202.5 L
255.28 202.5 L
256.003 202.5 L
256.727 202.5 L
257.45 202.5 L
258.173 202.5 L
258.897 202.5 L
259.62 202.5 L
260.343 202.5 L
261.067 202.5 L
261.79 202.5 L
262.513 202.5 L
263.237 202.5 L
263.96 202.5 L
264.683 202.5 L
265.407 202.5 L
266.13 202.5 L
266.853 202.5 L
267.577 202.5 L
268.3 202.5 L
269.023 202.5 L
269.747 202.5 L
270.47 202.5 L
271.193 202.5 L
271.917 202.5 L
272.64 202.5 L
273.363 202.5 L
274.087 202.5 L
274.81 202.5 L
275.533 202.5 L
276.257 202.5 L
276.98 202.5 L
277.703 202.5 L
278.427 202.5 L
279.15 202.5 L
279.873 202.5 L
280.597 202.5 L
281.32 202.5 L
282.043 202.5 L
282.767 202.5 L
283.49 202.5 L
284.213 202.5 L
284.937 202.5 L
285.66 202.5 L
286.383 202.5 L
287.107 202.5 L
287.83 202.5 L
288.553 202.5 L
289.277 202.5 L
290 202.5 L
290.723 202.5 L
291.447 202.5 L
292.17 202.5 L
292.893 202.5 L
293.617 202.5 L
294.34 202.5 L
295.063 202.5 L
295.787 202.5 L
296.51 202.5 L
297.233 202.5 L
297.957 202.5 L
298.68 202.5 L
299.403 202.5 L
300.127 202.5 L
300.85 202.5 L
301.573 202.5 L
302.297 202.5 L
303.02 202.5 L
303.743 202.5 L
304.467 202.5 L
305.19 202.5 L
305.913 202.5 L
306.637 202.5 L
307.36 202.5 L
308.083 202.5 L
308.807 202.5 L
309.53 202.5 L
310.253 202.5 L
310.977 202.5 L
311.7 202.5 L
312.423 202.5 L
313.147 202.5 L
313.87 202.5 L
314.593 202.5 L
315.317 202.5 L
316.04 202.5 L
316.763 202.5 L
317.487 202.5 L
318.21 202.5 L
318.933 202.5 L
319.657 202.5 L
320.38 202.5 L
321.103 202.5 L
321.827 202.5 L
322.55 202.5 L
323.273 202.5 L
323.997 202.5 L
324.72 202.5 L
325.443 202.5 L
326.167 202.5 L
326.89 202.5 L
327.613 202.5 L
328.337 202.5 L
329.06 202.5 L
329.783 202.5 L
330.507 202.5 L
331.23 202.5 L
331.953 202.5 L
332.677 202.5 L
333.4 202.5 L
334.123 202.5 L
334.847 202.5 L
335.57 202.5 L
336.293 202.5 L
337.017 202.5 L
337.74 202.5 L
338.463 202.5 L
339.187 202.5 L
339.91 202.5 L
340.633 202.5 L
341.357 202.5 L
342.08 202.5 L
342.803 202.5 L
343.527 202.5 L
344.25 202.5 L
344.973 202.5 L
345.697 202.5 L
346.42 202.5 L
347.143 202.5 L
347.867 202.5 L
348.59 202.5 L
349.313 202.5 L
350.037 202.5 L
350.76 202.5 L
351.483 202.5 L
352.207 202.5 L
352.93 202.5 L
353.653 202.5 L
354.377 202.5 L
355.1 202.5 L
355.823 202.5 L
356.547 202.5 L
357.27 202.5 L
357.993 202.5 L
358.717 202.5 L
359.44 202.5 L
360.163 202.5 L
360.887 202.5 L
361.61 202.5 L
362.333 202.5 L
363.057 202.5 L
363.78 202.5 L
364.503 202.5 L
365.227 202.5 L
365.95 202.5 L
366.673 202.5 L
367.397 202.5 L
368.12 202.5 L
368.843 202.5 L
369.567 202.5 L
370.29 202.5 L
371.013 202.5 L
371.737 202.5 L
372.46 202.5 L
373.183 202.5 L
373.907 202.5 L
374.63 202.5 L
375.353 202.5 L
376.077 202.5 L
376.8 202.5 L
377.523 202.5 L
378.247 202.5 L
378.97 202.5 L
379.693 202.5 L
380.417 202.5 L
381.14 202.5 L
381.863 202.5 L
382.587 202.5 L
383.31 202.5 L
384.033 202.5 L
384.757 202.5 L
385.48 202.5 L
386.203 202.5 L
386.927 202.5 L
387.65 202.5 L
388.373 202.5 L
389.097 202.5 L
389.82 202.5 L
390.543 202.5 L
391.267 202.5 L
391.99 202.5 L
392.713 202.5 L
393.437 202.5 L
394.16 202.5 L
394.883 202.5 L
395.607 202.5 L
396.33 202.5 L
397.053 202.5 L
397.777 202.5 L
398.5 202.5 L
399.223 202.5 L
399.947 202.5 L
400.67 202.5 L
401.393 202.5 L
402.117 202.5 L
402.84 202.5 L
403.563 202.5 L
404.287 202.5 L
405.01 202.5 L
405.733 202.5 L
406.457 202.5 L
407.18 202.5 L
407.903 202.5 L
408.627 202.5 L
409.35 202.5 L
410.073 202.5 L
410.797 202.5 L
411.52 202.5 L
412.243 202.5 L
412.967 202.5 L
413.69 202.5 L
414.413 202.5 L
415.137 202.5 L
415.86 202.5 L
416.583 202.5 L
417.307 202.5 L
418.03 202.5 L
418.753 202.5 L
419.477 202.5 L
420.2 202.5 L
420.923 202.5 L
421.647 202.5 L
422.37 202.5 L
423.093 202.5 L
423.817 202.5 L
424.54 202.5 L
425.263 202.5 L
425.987 202.5 L
426.71 202.5 L
427.433 202.5 L
428.157 202.5 L
428.88 202.5 L
429.603 202.5 L
430.327 202.5 L
431.05 202.5 L
431.773 202.5 L
432.497 202.5 L
433.22 202.5 L
433.943 202.5 L
434.667 202.5 L
435.39 202.5 L
436.113 202.5 L
436.837 202.5 L
437.56 202.5 L
438.283 202.5 L
439.007 202.5 L
439.73 202.5 L
440.453 202.5 L
441.177 202.5 L
441.9 202.5 L
442.623 202.5 L
443.347 202.5 L
444.07 202.5 L
444.793 202.5 L
445.517 202.5 L
446.24 202.5 L
446.963 202.5 L
447.687 202.5 L
448.41 202.5 L
449.133 202.5 L
449.857 202.5 L
450.58 202.5 L
451.303 202.5 L
452.027 202.5 L
452.75 202.5 L
453.473 202.5 L
454.197 202.5 L
454.92 202.5 L
455.643 202.5 L
456.367 202.5 L
457.09 202.5 L
457.813 202.5 L
458.537 202.5 L
459.26 202.5 L
459.983 202.5 L
460.707 202.5 L
461.43 202.5 L
462.153 202.5 L
462.877 202.5 L
463.6 202.5 L
464.323 202.5 L
465.047 202.5 L
465.77 202.5 L
466.493 202.5 L
467.217 202.5 L
467.94 202.5 L
468.663 202.5 L
469.387 202.5 L
470.11 202.5 L
S
GR
GS
[0.75 0 0 0.75 0 0] CT
0.8 GC
2 setlinecap
10.0 ML
N
73.723 164.198 M
74.447 164.198 L
75.17 164.198 L
75.893 164.198 L
76.617 164.198 L
77.34 164.198 L
78.063 164.198 L
78.787 164.198 L
79.51 164.198 L
80.233 164.198 L
80.957 164.198 L
81.68 164.198 L
82.403 164.198 L
83.127 164.198 L
83.85 164.198 L
84.573 164.198 L
85.297 164.198 L
86.02 164.198 L
86.743 164.198 L
87.467 164.198 L
88.19 164.198 L
88.913 164.198 L
89.637 164.198 L
90.36 164.198 L
91.083 164.198 L
91.807 164.198 L
92.53 164.198 L
93.253 164.198 L
93.977 164.198 L
94.7 164.198 L
95.423 164.198 L
96.147 164.198 L
96.87 164.198 L
97.593 164.198 L
98.317 164.198 L
99.04 164.198 L
99.763 164.198 L
100.487 164.198 L
101.21 164.198 L
101.933 164.198 L
102.657 164.198 L
103.38 164.198 L
104.103 164.198 L
104.827 164.198 L
105.55 164.198 L
106.273 164.198 L
106.997 164.198 L
107.72 164.198 L
108.443 164.198 L
109.167 164.198 L
109.89 164.198 L
110.613 164.198 L
111.337 164.198 L
112.06 164.198 L
112.783 164.198 L
113.507 164.198 L
114.23 164.198 L
114.953 164.198 L
115.677 164.198 L
116.4 164.198 L
117.123 164.198 L
117.847 164.198 L
118.57 164.198 L
119.293 164.198 L
120.017 164.198 L
120.74 164.198 L
121.463 164.198 L
122.187 164.198 L
122.91 164.198 L
123.633 164.198 L
124.357 164.198 L
125.08 164.198 L
125.803 164.198 L
126.527 164.198 L
127.25 164.198 L
127.973 164.198 L
128.697 164.198 L
129.42 164.198 L
130.143 164.198 L
130.867 164.198 L
131.59 164.198 L
132.313 164.198 L
133.037 164.198 L
133.76 164.198 L
134.483 164.198 L
135.207 164.198 L
135.93 164.198 L
136.653 164.198 L
137.377 164.198 L
138.1 164.198 L
138.823 164.198 L
139.547 164.198 L
140.27 164.198 L
140.993 164.198 L
141.717 164.198 L
142.44 164.198 L
143.163 164.198 L
143.887 164.198 L
144.61 164.198 L
145.333 164.198 L
146.057 164.198 L
146.78 164.198 L
147.503 164.198 L
148.227 164.198 L
148.95 164.198 L
149.673 164.198 L
150.397 164.198 L
151.12 164.198 L
151.843 164.198 L
152.567 164.198 L
153.29 164.198 L
154.013 164.198 L
154.737 164.198 L
155.46 164.198 L
156.183 164.198 L
156.907 164.198 L
157.63 164.198 L
158.353 164.198 L
159.077 164.198 L
159.8 164.198 L
160.523 164.198 L
161.247 164.198 L
161.97 164.198 L
162.693 164.198 L
163.417 164.198 L
164.14 164.198 L
164.863 164.198 L
165.587 164.198 L
166.31 164.198 L
167.033 164.198 L
167.757 164.198 L
168.48 164.198 L
169.203 164.198 L
169.927 164.198 L
170.65 164.198 L
171.373 164.198 L
172.097 164.198 L
172.82 164.198 L
173.543 164.198 L
174.267 164.198 L
174.99 164.198 L
175.713 164.198 L
176.437 164.198 L
177.16 164.198 L
177.883 164.198 L
178.607 164.198 L
179.33 164.198 L
180.053 164.198 L
180.777 164.198 L
181.5 164.198 L
182.223 164.198 L
182.947 164.198 L
183.67 164.198 L
184.393 164.198 L
185.117 164.198 L
185.84 164.198 L
186.563 164.198 L
187.287 164.198 L
188.01 164.198 L
188.733 164.198 L
189.457 164.198 L
190.18 164.198 L
190.903 164.198 L
191.627 164.198 L
192.35 164.198 L
193.073 164.198 L
193.797 164.198 L
194.52 164.198 L
195.243 164.198 L
195.967 164.198 L
196.69 164.198 L
197.413 164.198 L
198.137 164.198 L
198.86 164.198 L
199.583 164.198 L
200.307 164.198 L
201.03 164.198 L
201.753 164.198 L
202.477 164.198 L
203.2 164.198 L
203.923 164.198 L
204.647 164.198 L
205.37 164.198 L
206.093 164.198 L
206.817 164.198 L
207.54 164.198 L
208.263 164.198 L
208.987 164.198 L
209.71 164.198 L
210.433 164.198 L
211.157 164.198 L
211.88 164.198 L
212.603 164.198 L
213.327 164.198 L
214.05 164.198 L
214.773 164.198 L
215.497 164.198 L
216.22 164.198 L
216.943 164.198 L
217.667 164.198 L
218.39 164.198 L
219.113 164.198 L
219.837 164.198 L
220.56 164.198 L
221.283 164.198 L
222.007 164.198 L
222.73 164.198 L
223.453 164.198 L
224.177 164.198 L
224.9 164.198 L
225.623 164.198 L
226.347 164.198 L
227.07 164.198 L
227.793 164.198 L
228.517 164.198 L
229.24 164.198 L
229.963 164.198 L
230.687 164.198 L
231.41 164.198 L
232.133 164.198 L
232.857 164.198 L
233.58 164.198 L
234.303 164.198 L
235.027 164.198 L
235.75 164.198 L
236.473 164.198 L
237.197 164.198 L
237.92 164.198 L
238.643 164.198 L
239.367 164.198 L
240.09 164.198 L
240.813 164.198 L
241.537 164.198 L
242.26 164.198 L
242.983 164.198 L
243.707 164.198 L
244.43 164.198 L
245.153 164.198 L
245.877 164.198 L
246.6 164.198 L
247.323 164.198 L
248.047 164.198 L
248.77 164.198 L
249.493 164.198 L
250.217 164.198 L
250.94 164.198 L
251.663 164.198 L
252.387 164.198 L
253.11 164.198 L
253.833 164.198 L
254.557 164.198 L
255.28 164.198 L
256.003 164.198 L
256.727 164.198 L
257.45 164.198 L
258.173 164.198 L
258.897 164.198 L
259.62 164.198 L
260.343 164.198 L
261.067 164.198 L
261.79 164.198 L
262.513 164.198 L
263.237 164.198 L
263.96 164.198 L
264.683 164.198 L
265.407 164.198 L
266.13 164.198 L
266.853 164.198 L
267.577 164.198 L
268.3 164.198 L
269.023 164.198 L
269.747 164.198 L
270.47 164.198 L
271.193 164.198 L
271.917 164.198 L
272.64 164.198 L
273.363 164.198 L
274.087 164.198 L
274.81 164.198 L
275.533 164.198 L
276.257 164.198 L
276.98 164.198 L
277.703 164.198 L
278.427 164.198 L
279.15 164.198 L
279.873 164.198 L
280.597 164.198 L
281.32 164.198 L
282.043 164.198 L
282.767 164.198 L
283.49 164.198 L
284.213 164.198 L
284.937 164.198 L
285.66 164.198 L
286.383 164.198 L
287.107 164.198 L
287.83 164.198 L
288.553 164.198 L
289.277 164.198 L
290 164.198 L
290.723 164.198 L
291.447 164.198 L
292.17 164.198 L
292.893 164.198 L
293.617 164.198 L
294.34 164.198 L
295.063 164.198 L
295.787 164.198 L
296.51 164.198 L
297.233 164.198 L
297.957 164.198 L
298.68 164.198 L
299.403 164.198 L
300.127 164.198 L
300.85 164.198 L
301.573 164.198 L
302.297 164.198 L
303.02 164.198 L
303.743 164.198 L
304.467 164.198 L
305.19 164.198 L
305.913 164.198 L
306.637 164.198 L
307.36 164.198 L
308.083 164.198 L
308.807 164.198 L
309.53 164.198 L
310.253 164.198 L
310.977 164.198 L
311.7 164.198 L
312.423 164.198 L
313.147 164.198 L
313.87 164.198 L
314.593 164.198 L
315.317 164.198 L
316.04 164.198 L
316.763 164.198 L
317.487 164.198 L
318.21 164.198 L
318.933 164.198 L
319.657 164.198 L
320.38 164.198 L
321.103 164.198 L
321.827 164.198 L
322.55 164.198 L
323.273 164.198 L
323.997 164.198 L
324.72 164.198 L
325.443 164.198 L
326.167 164.198 L
326.89 164.198 L
327.613 164.198 L
328.337 164.198 L
329.06 164.198 L
329.783 164.198 L
330.507 164.198 L
331.23 164.198 L
331.953 164.198 L
332.677 164.198 L
333.4 164.198 L
334.123 164.198 L
334.847 164.198 L
335.57 164.198 L
336.293 164.198 L
337.017 164.198 L
337.74 164.198 L
338.463 164.198 L
339.187 164.198 L
339.91 164.198 L
340.633 164.198 L
341.357 164.198 L
342.08 164.198 L
342.803 164.198 L
343.527 164.198 L
344.25 164.198 L
344.973 164.198 L
345.697 164.198 L
346.42 164.198 L
347.143 164.198 L
347.867 164.198 L
348.59 164.198 L
349.313 164.198 L
350.037 164.198 L
350.76 164.198 L
351.483 164.198 L
352.207 164.198 L
352.93 164.198 L
353.653 164.198 L
354.377 164.198 L
355.1 164.198 L
355.823 164.198 L
356.547 164.198 L
357.27 164.198 L
357.993 164.198 L
358.717 164.198 L
359.44 164.198 L
360.163 164.198 L
360.887 164.198 L
361.61 164.198 L
362.333 164.198 L
363.057 164.198 L
363.78 164.198 L
364.503 164.198 L
365.227 164.198 L
365.95 164.198 L
366.673 164.198 L
367.397 164.198 L
368.12 164.198 L
368.843 164.198 L
369.567 164.198 L
370.29 164.198 L
371.013 164.198 L
371.737 164.198 L
372.46 164.198 L
373.183 164.198 L
373.907 164.198 L
374.63 164.198 L
375.353 164.198 L
376.077 164.198 L
376.8 164.198 L
377.523 164.198 L
378.247 164.198 L
378.97 164.198 L
379.693 164.198 L
380.417 164.198 L
381.14 164.198 L
381.863 164.198 L
382.587 164.198 L
383.31 164.198 L
384.033 164.198 L
384.757 164.198 L
385.48 164.198 L
386.203 164.198 L
386.927 164.198 L
387.65 164.198 L
388.373 164.198 L
389.097 164.198 L
389.82 164.198 L
390.543 164.198 L
391.267 164.198 L
391.99 164.198 L
392.713 164.198 L
393.437 164.198 L
394.16 164.198 L
394.883 164.198 L
395.607 164.198 L
396.33 164.198 L
397.053 164.198 L
397.777 164.198 L
398.5 164.198 L
399.223 164.198 L
399.947 164.198 L
400.67 164.198 L
401.393 164.198 L
402.117 164.198 L
402.84 164.198 L
403.563 164.198 L
404.287 164.198 L
405.01 164.198 L
405.733 164.198 L
406.457 164.198 L
407.18 164.198 L
407.903 164.198 L
408.627 164.198 L
409.35 164.198 L
410.073 164.198 L
410.797 164.198 L
411.52 164.198 L
412.243 164.198 L
412.967 164.198 L
413.69 164.198 L
414.413 164.198 L
415.137 164.198 L
415.86 164.198 L
416.583 164.198 L
417.307 164.198 L
418.03 164.198 L
418.753 164.198 L
419.477 164.198 L
420.2 164.198 L
420.923 164.198 L
421.647 164.198 L
422.37 164.198 L
423.093 164.198 L
423.817 164.198 L
424.54 164.198 L
425.263 164.198 L
425.987 164.198 L
426.71 164.198 L
427.433 164.198 L
428.157 164.198 L
428.88 164.198 L
429.603 164.198 L
430.327 164.198 L
431.05 164.198 L
431.773 164.198 L
432.497 164.198 L
433.22 164.198 L
433.943 164.198 L
434.667 164.198 L
435.39 164.198 L
436.113 164.198 L
436.837 164.198 L
437.56 164.198 L
438.283 164.198 L
439.007 164.198 L
439.73 164.198 L
440.453 164.198 L
441.177 164.198 L
441.9 164.198 L
442.623 164.198 L
443.347 164.198 L
444.07 164.198 L
444.793 164.198 L
445.517 164.198 L
446.24 164.198 L
446.963 164.198 L
447.687 164.198 L
448.41 164.198 L
449.133 164.198 L
449.857 164.198 L
450.58 164.198 L
451.303 164.198 L
452.027 164.198 L
452.75 164.198 L
453.473 164.198 L
454.197 164.198 L
454.92 164.198 L
455.643 164.198 L
456.367 164.198 L
457.09 164.198 L
457.813 164.198 L
458.537 164.198 L
459.26 164.198 L
459.983 164.198 L
460.707 164.198 L
461.43 164.198 L
462.153 164.198 L
462.877 164.198 L
463.6 164.198 L
464.323 164.198 L
465.047 164.198 L
465.77 164.198 L
466.493 164.198 L
467.217 164.198 L
467.94 164.198 L
468.663 164.198 L
469.387 164.198 L
470.11 164.198 L
S
GR
GS
[0.75 0 0 0.75 0 0] CT
1 1 0 RC
2 setlinecap
10.0 ML
4 LW
N
73.723 285.806 M
74.447 285.806 L
75.17 285.806 L
75.893 285.806 L
76.617 285.806 L
77.34 285.806 L
78.063 285.806 L
78.787 285.806 L
79.51 285.806 L
80.233 285.806 L
80.957 285.806 L
81.68 285.806 L
82.403 285.806 L
83.127 285.806 L
83.85 285.806 L
84.573 285.806 L
85.297 285.806 L
86.02 285.806 L
86.743 285.806 L
87.467 285.806 L
88.19 285.806 L
88.913 285.806 L
89.637 285.806 L
90.36 285.806 L
91.083 285.806 L
91.807 285.806 L
92.53 285.806 L
93.253 285.806 L
93.977 285.806 L
94.7 285.806 L
95.423 285.806 L
96.147 285.806 L
96.87 285.806 L
97.593 285.806 L
98.317 285.806 L
99.04 285.806 L
99.763 285.806 L
100.487 285.806 L
101.21 285.806 L
101.933 285.806 L
102.657 285.806 L
103.38 285.806 L
104.103 285.806 L
104.827 285.806 L
105.55 285.806 L
106.273 285.806 L
106.997 285.806 L
107.72 285.806 L
108.443 285.806 L
109.167 285.806 L
109.89 285.806 L
110.613 285.806 L
111.337 285.806 L
112.06 285.806 L
112.783 285.806 L
113.507 285.806 L
114.23 285.806 L
114.953 285.806 L
115.677 285.806 L
116.4 285.806 L
117.123 285.806 L
S
GR
GS
[0.75 0 0 0.75 71.5675 214.35457] CT
/Helvetica 19 F
GS
[1 0 0 1 0 0] CT
0 7.153 moveto 
1 -1 scale
(a) t 
GR
GR
GS
[0.75 0 0 0.75 0 0] CT
1 1 0 RC
2 setlinecap
10.0 ML
4 LW
N
117.847 248.81 M
118.57 248.81 L
119.293 248.81 L
120.017 248.81 L
120.74 248.81 L
121.463 248.81 L
122.187 248.81 L
122.91 248.81 L
123.633 248.81 L
124.357 248.81 L
125.08 248.81 L
125.803 248.81 L
126.527 248.81 L
127.25 248.81 L
127.973 248.81 L
128.697 248.81 L
129.42 248.81 L
130.143 248.81 L
130.867 248.81 L
131.59 248.81 L
132.313 248.81 L
133.037 248.81 L
133.76 248.81 L
134.483 248.81 L
135.207 248.81 L
135.93 248.81 L
136.653 248.81 L
137.377 248.81 L
138.1 248.81 L
138.823 248.81 L
139.547 248.81 L
140.27 248.81 L
140.993 248.81 L
141.717 248.81 L
142.44 248.81 L
143.163 248.81 L
143.887 248.81 L
144.61 248.81 L
145.333 248.81 L
146.057 248.81 L
146.78 248.81 L
147.503 248.81 L
148.227 248.81 L
148.95 248.81 L
149.673 248.81 L
150.397 248.81 L
151.12 248.81 L
151.843 248.81 L
152.567 248.81 L
153.29 248.81 L
154.013 248.81 L
154.737 248.81 L
155.46 248.81 L
156.183 248.81 L
156.907 248.81 L
157.63 248.81 L
158.353 248.81 L
159.077 248.81 L
159.8 248.81 L
160.523 248.81 L
161.247 248.81 L
S
GR
GS
[0.75 0 0 0.75 104.66 186.60722] CT
/Helvetica 19 F
GS
[1 0 0 1 0 0] CT
0 7.153 moveto 
1 -1 scale
(a) t 
GR
GR
GS
[0.75 0 0 0.75 0 0] CT
0 1 1 RC
2 setlinecap
10.0 ML
4 LW
N
161.97 201.924 M
162.693 201.924 L
163.417 201.924 L
164.14 201.924 L
164.863 201.924 L
165.587 201.924 L
166.31 201.924 L
167.033 201.924 L
167.757 201.924 L
168.48 201.924 L
169.203 201.924 L
169.927 201.924 L
170.65 201.924 L
171.373 201.924 L
172.097 201.924 L
172.82 201.924 L
173.543 201.924 L
174.267 201.924 L
174.99 201.924 L
175.713 201.924 L
176.437 201.924 L
177.16 201.924 L
177.883 201.924 L
178.607 201.924 L
179.33 201.924 L
180.053 201.924 L
180.777 201.924 L
181.5 201.924 L
182.223 201.924 L
182.947 201.924 L
183.67 201.924 L
184.393 201.924 L
185.117 201.924 L
185.84 201.924 L
186.563 201.924 L
187.287 201.924 L
188.01 201.924 L
188.733 201.924 L
189.457 201.924 L
190.18 201.924 L
190.903 201.924 L
191.627 201.924 L
192.35 201.924 L
193.073 201.924 L
193.797 201.924 L
194.52 201.924 L
195.243 201.924 L
195.967 201.924 L
196.69 201.924 L
197.413 201.924 L
198.137 201.924 L
198.86 201.924 L
199.583 201.924 L
200.307 201.924 L
201.03 201.924 L
201.753 201.924 L
202.477 201.924 L
203.2 201.924 L
203.923 201.924 L
204.647 201.924 L
205.37 201.924 L
S
GR
GS
[0.75 0 0 0.75 137.7525 151.44321] CT
/Helvetica 19 F
GS
[1 0 0 1 0 0] CT
0 7.153 moveto 
1 -1 scale
(c) t 
GR
GR
GS
[0.75 0 0 0.75 0 0] CT
0 1 1 RC
2 setlinecap
10.0 ML
4 LW
N
206.093 193.963 M
206.817 193.963 L
207.54 193.963 L
208.263 193.963 L
208.987 193.963 L
209.71 193.963 L
210.433 193.963 L
211.157 193.963 L
211.88 193.963 L
212.603 193.963 L
213.327 193.963 L
214.05 193.963 L
214.773 193.963 L
215.497 193.963 L
216.22 193.963 L
216.943 193.963 L
217.667 193.963 L
218.39 193.963 L
219.113 193.963 L
219.837 193.963 L
220.56 193.963 L
221.283 193.963 L
222.007 193.963 L
222.73 193.963 L
223.453 193.963 L
224.177 193.963 L
224.9 193.963 L
225.623 193.963 L
226.347 193.963 L
227.07 193.963 L
227.793 193.963 L
228.517 193.963 L
229.24 193.963 L
229.963 193.963 L
230.687 193.963 L
231.41 193.963 L
232.133 193.963 L
232.857 193.963 L
233.58 193.963 L
234.303 193.963 L
235.027 193.963 L
235.75 193.963 L
236.473 193.963 L
237.197 193.963 L
237.92 193.963 L
238.643 193.963 L
239.367 193.963 L
240.09 193.963 L
240.813 193.963 L
241.537 193.963 L
242.26 193.963 L
242.983 193.963 L
243.707 193.963 L
244.43 193.963 L
245.153 193.963 L
245.877 193.963 L
246.6 193.963 L
247.323 193.963 L
248.047 193.963 L
248.77 193.963 L
249.493 193.963 L
S
GR
GS
[0.75 0 0 0.75 170.845 145.47197] CT
/Helvetica 19 F
GS
[1 0 0 1 0 0] CT
0 7.153 moveto 
1 -1 scale
(c) t 
GR
GR
GS
[0.75 0 0 0.75 0 0] CT
0 1 1 RC
2 setlinecap
10.0 ML
4 LW
N
250.217 180.93 M
250.94 180.93 L
251.663 180.93 L
252.387 180.93 L
253.11 180.93 L
253.833 180.93 L
254.557 180.93 L
255.28 180.93 L
256.003 180.93 L
256.727 180.93 L
257.45 180.93 L
258.173 180.93 L
258.897 180.93 L
259.62 180.93 L
260.343 180.93 L
261.067 180.93 L
261.79 180.93 L
262.513 180.93 L
263.237 180.93 L
263.96 180.93 L
264.683 180.93 L
265.407 180.93 L
266.13 180.93 L
266.853 180.93 L
267.577 180.93 L
268.3 180.93 L
269.023 180.93 L
269.747 180.93 L
270.47 180.93 L
271.193 180.93 L
271.917 180.93 L
272.64 180.93 L
273.363 180.93 L
274.087 180.93 L
274.81 180.93 L
275.533 180.93 L
276.257 180.93 L
276.98 180.93 L
277.703 180.93 L
278.427 180.93 L
279.15 180.93 L
279.873 180.93 L
280.597 180.93 L
281.32 180.93 L
282.043 180.93 L
282.767 180.93 L
283.49 180.93 L
284.213 180.93 L
284.937 180.93 L
285.66 180.93 L
286.383 180.93 L
287.107 180.93 L
287.83 180.93 L
288.553 180.93 L
289.277 180.93 L
290 180.93 L
290.723 180.93 L
291.447 180.93 L
292.17 180.93 L
292.893 180.93 L
293.617 180.93 L
S
GR
GS
[0.75 0 0 0.75 203.93749 135.69761] CT
/Helvetica 19 F
GS
[1 0 0 1 0 0] CT
0 7.153 moveto 
1 -1 scale
(c) t 
GR
GR
GS
[0.75 0 0 0.75 0 0] CT
0 1 0 RC
2 setlinecap
10.0 ML
4 LW
N
294.34 150.268 M
295.063 150.268 L
295.787 150.268 L
296.51 150.268 L
297.233 150.268 L
297.957 150.268 L
298.68 150.268 L
299.403 150.268 L
300.127 150.268 L
300.85 150.268 L
301.573 150.268 L
302.297 150.268 L
303.02 150.268 L
303.743 150.268 L
304.467 150.268 L
305.19 150.268 L
305.913 150.268 L
306.637 150.268 L
307.36 150.268 L
308.083 150.268 L
308.807 150.268 L
309.53 150.268 L
310.253 150.268 L
310.977 150.268 L
311.7 150.268 L
312.423 150.268 L
313.147 150.268 L
313.87 150.268 L
314.593 150.268 L
315.317 150.268 L
316.04 150.268 L
316.763 150.268 L
317.487 150.268 L
318.21 150.268 L
318.933 150.268 L
319.657 150.268 L
320.38 150.268 L
321.103 150.268 L
321.827 150.268 L
322.55 150.268 L
323.273 150.268 L
323.997 150.268 L
324.72 150.268 L
325.443 150.268 L
326.167 150.268 L
326.89 150.268 L
327.613 150.268 L
328.337 150.268 L
329.06 150.268 L
329.783 150.268 L
330.507 150.268 L
331.23 150.268 L
331.953 150.268 L
332.677 150.268 L
333.4 150.268 L
334.123 150.268 L
334.847 150.268 L
335.57 150.268 L
336.293 150.268 L
337.017 150.268 L
337.74 150.268 L
S
GR
GS
[0.75 0 0 0.75 237.03001 112.70121] CT
/Helvetica 19 F
GS
[1 0 0 1 0 0] CT
0 7.153 moveto 
1 -1 scale
(d) t 
GR
GR
GS
[0.75 0 0 0.75 0 0] CT
0 1 1 RC
2 setlinecap
10.0 ML
4 LW
N
338.463 169.225 M
339.187 169.225 L
339.91 169.225 L
340.633 169.225 L
341.357 169.225 L
342.08 169.225 L
342.803 169.225 L
343.527 169.225 L
344.25 169.225 L
344.973 169.225 L
345.697 169.225 L
346.42 169.225 L
347.143 169.225 L
347.867 169.225 L
348.59 169.225 L
349.313 169.225 L
350.037 169.225 L
350.76 169.225 L
351.483 169.225 L
352.207 169.225 L
352.93 169.225 L
353.653 169.225 L
354.377 169.225 L
355.1 169.225 L
355.823 169.225 L
356.547 169.225 L
357.27 169.225 L
357.993 169.225 L
358.717 169.225 L
359.44 169.225 L
360.163 169.225 L
360.887 169.225 L
361.61 169.225 L
362.333 169.225 L
363.057 169.225 L
363.78 169.225 L
364.503 169.225 L
365.227 169.225 L
365.95 169.225 L
366.673 169.225 L
367.397 169.225 L
368.12 169.225 L
368.843 169.225 L
369.567 169.225 L
370.29 169.225 L
371.013 169.225 L
371.737 169.225 L
372.46 169.225 L
373.183 169.225 L
373.907 169.225 L
374.63 169.225 L
375.353 169.225 L
376.077 169.225 L
376.8 169.225 L
377.523 169.225 L
378.247 169.225 L
378.97 169.225 L
379.693 169.225 L
380.417 169.225 L
381.14 169.225 L
381.863 169.225 L
S
GR
GS
[0.75 0 0 0.75 270.1225 126.91846] CT
/Helvetica 19 F
GS
[1 0 0 1 0 0] CT
0 7.153 moveto 
1 -1 scale
(c) t 
GR
GR
GS
[0.75 0 0 0.75 0 0] CT
0 1 1 RC
2 setlinecap
10.0 ML
4 LW
N
382.587 191.814 M
383.31 191.814 L
384.033 191.814 L
384.757 191.814 L
385.48 191.814 L
386.203 191.814 L
386.927 191.814 L
387.65 191.814 L
388.373 191.814 L
389.097 191.814 L
389.82 191.814 L
390.543 191.814 L
391.267 191.814 L
391.99 191.814 L
392.713 191.814 L
393.437 191.814 L
394.16 191.814 L
394.883 191.814 L
395.607 191.814 L
396.33 191.814 L
397.053 191.814 L
397.777 191.814 L
398.5 191.814 L
399.223 191.814 L
399.947 191.814 L
400.67 191.814 L
401.393 191.814 L
402.117 191.814 L
402.84 191.814 L
403.563 191.814 L
404.287 191.814 L
405.01 191.814 L
405.733 191.814 L
406.457 191.814 L
407.18 191.814 L
407.903 191.814 L
408.627 191.814 L
409.35 191.814 L
410.073 191.814 L
410.797 191.814 L
411.52 191.814 L
412.243 191.814 L
412.967 191.814 L
413.69 191.814 L
414.413 191.814 L
415.137 191.814 L
415.86 191.814 L
416.583 191.814 L
417.307 191.814 L
418.03 191.814 L
418.753 191.814 L
419.477 191.814 L
420.2 191.814 L
420.923 191.814 L
421.647 191.814 L
422.37 191.814 L
423.093 191.814 L
423.817 191.814 L
424.54 191.814 L
425.263 191.814 L
425.987 191.814 L
S
GR
GS
[0.75 0 0 0.75 303.21499 143.86068] CT
/Helvetica 19 F
GS
[1 0 0 1 0 0] CT
0 7.153 moveto 
1 -1 scale
(c) t 
GR
GR
GS
[0.75 0 0 0.75 0 0] CT
0 1 1 RC
2 setlinecap
10.0 ML
4 LW
N
426.71 199.76 M
427.433 199.76 L
428.157 199.76 L
428.88 199.76 L
429.603 199.76 L
430.327 199.76 L
431.05 199.76 L
431.773 199.76 L
432.497 199.76 L
433.22 199.76 L
433.943 199.76 L
434.667 199.76 L
435.39 199.76 L
436.113 199.76 L
436.837 199.76 L
437.56 199.76 L
438.283 199.76 L
439.007 199.76 L
439.73 199.76 L
440.453 199.76 L
441.177 199.76 L
441.9 199.76 L
442.623 199.76 L
443.347 199.76 L
444.07 199.76 L
444.793 199.76 L
445.517 199.76 L
446.24 199.76 L
446.963 199.76 L
447.687 199.76 L
448.41 199.76 L
449.133 199.76 L
449.857 199.76 L
450.58 199.76 L
451.303 199.76 L
452.027 199.76 L
452.75 199.76 L
453.473 199.76 L
454.197 199.76 L
454.92 199.76 L
455.643 199.76 L
456.367 199.76 L
457.09 199.76 L
457.813 199.76 L
458.537 199.76 L
459.26 199.76 L
459.983 199.76 L
460.707 199.76 L
461.43 199.76 L
462.153 199.76 L
462.877 199.76 L
463.6 199.76 L
464.323 199.76 L
465.047 199.76 L
465.77 199.76 L
466.493 199.76 L
467.217 199.76 L
467.94 199.76 L
468.663 199.76 L
469.387 199.76 L
470.11 199.76 L
S
GR
GS
[0.75 0 0 0.75 336.3075 149.82008] CT
/Helvetica 19 F
GS
[1 0 0 1 0 0] CT
0 7.153 moveto 
1 -1 scale
(c) t 
GR
GR
%%Trailer
%%Pages: 1
%%EOF
