827980 99999 JOAO PESSOA                    1931   18   19   29   22   25   16   26   22   24   14   10    7
827980 99999 JOAO PESSOA                    1932   18   20   22   21   27   27   20   24   18    7   12   11
827980 99999 JOAO PESSOA                    1933   11   16   18   11   13   17   21   25   16   14   17   14
827980 99999 JOAO PESSOA                    1934   16   17   13   24   23   24    5   11   14    0    0    0
827980 99999 JOAO PESSOA                    1935   18   18   24   24   10   16   18   16   19   17   20   14
827980 99999 JOAO PESSOA                    1936   18   19   21   17   17   18   23   13   22   17   18   18
827980 99999 JOAO PESSOA                    1937   11    5   18   23   13   12   12    8    7    4    2    4
827980 99999 JOAO PESSOA                    1938   14   20   24    0   17   23   28   29   27   29   28   30
827980 99999 JOAO PESSOA                    1939    0    0    0    0    0    0   31   31   30   30   27   28
827980 99999 JOAO PESSOA                    1940   31   29   55   55   54   51   61   59   60   62   55   57
827980 99999 JOAO PESSOA                    1941   54   55   59   59   60   59   58   60   55    0    0    0
827980 99999 JOAO PESSOA                    1943    0    0    0   56   58   56   56   55   55   60   57   58
827980 99999 JOAO PESSOA                    1944   58   55   48    0    0    0    0    0    0    0    0    0
827980 99999 JOAO PESSOA                    1973  444  411  508  504  497  422  362  403  411  429  418  346
827980 99999 JOAO PESSOA                    1974  342  326  422  385  422  434  453  443  439  455  435  470
827980 99999 JOAO PESSOA                    1975  396  383  448  425  388  422  345  444  437  479  434  466
827980 99999 JOAO PESSOA                    1976  466  442  462  427  461  464  459  445  465  503  498  165
827980 99999 JOAO PESSOA                    1977  156  156  171  146  168  157  163  163  155  159  153  159
827980 99999 JOAO PESSOA                    1978  160  140  163  148  164  153  164  142  159  160  149  173
827980 99999 JOAO PESSOA                    1979  169  154  153  163  150  144  149  153  156  155  147  152
827980 99999 JOAO PESSOA                    1980  164  148  147  125  129  119  133  139  130  135  135  124
827980 99999 JOAO PESSOA                    1981  120  139  149  147  146  141  140  128  131   92   99  111
827980 99999 JOAO PESSOA                    1982  104  117  121  129  108   76   68   73   52   12   13    1
827980 99999 JOAO PESSOA                    1983   22   50   62   63   77   47  106  114   82   30   54  100
827980 99999 JOAO PESSOA                    1984  104   83   85   83   98   91   85   99  117   93  120  100
827980 99999 JOAO PESSOA                    1985   91   78  106  114   95   94   76  112  106  111   94  119
827980 99999 JOAO PESSOA                    1986  100  111  132  139  130  127  145  159  111  120  122   94
827980 99999 JOAO PESSOA                    1987   99   89  102   99   98  116  123   37   16    5   41   49
827980 99999 JOAO PESSOA                    1988   76  109  106  122  130   98   82   78   77   74  102   94
827980 99999 JOAO PESSOA                    1989  112  112  111   86  130   90  113  118  136  150  123   61
827980 99999 JOAO PESSOA                    1990   26   29   30   28   21   50   32   43   39   25   30   44
827980 99999 JOAO PESSOA                    1991   33   25   21   40   29   34  217  262  263  234  199  213
827980 99999 JOAO PESSOA                    1992  177  151  159  110  176  274  278  204  127   99  101  129
827980 99999 JOAO PESSOA                    1993  146   94   96   78   32   75   40   76   54   60   80  108
827980 99999 JOAO PESSOA                    1994  103   85  104   85  123   97  116  148   72  269  300  266
827980 99999 JOAO PESSOA                    1995  113  228  226  363  484  500  518  535  451  397  358  553
827980 99999 JOAO PESSOA                    1996  588  515  541  570  573  466  550  571  583  539  516  527
827980 99999 JOAO PESSOA                    1997  556  454  556  542  602  538  526  550  489  244   71  389
827980 99999 JOAO PESSOA                    1998  409  503  523  531  515  460  537  444  370  524  436  235
827980 99999 JOAO PESSOA                    1999  546  501  609  654  635  646  626  668  624  632  602  586
827980 99999 JOAO PESSOA                    2000  664  600  661  667  652  650  670  600  600  587  491  684
827980 99999 JOAO PESSOA                    2001  668  570  697  440  409  423  489  671  666  671  649  657
827980 99999 JOAO PESSOA                    2002    1    4   16    3    9   27    8    4    1    0    0    1
827980 99999 JOAO PESSOA                    2003    0    2    0    1    5   29    0    0    8    0    0    8
827980 99999 JOAO PESSOA                    2004    7    0    0    0    0    3    0    2    0    0    0    0
827980 99999 JOAO PESSOA                    2005    0    0    2    0   10    1    0    0    3    0    0    0
827980 99999 JOAO PESSOA                    2006    0    0    1    0    0    0    1    1    0    0    0    0
827980 99999 JOAO PESSOA                    2007    0    1    0    8   16   30  646  364  692  735  713  744
827980 99999 JOAO PESSOA                    2008  741  682  693  748  760  757  775  766  721  748  720  745
827980 99999 JOAO PESSOA                    2009  755  690  756  747  769  726  780  763  725  744  719  748
827980 99999 JOAO PESSOA                    2010  758  682  743  733  757  740  773  773  730  744  718  748
827980 99999 JOAO PESSOA                    2011  766  683  752  754  769  742  797  765  722  751  726  739
827980 99999 JOAO PESSOA                    2012  760  708  732  723  758  741  759  756  719  693  718  730
827980 99999 JOAO PESSOA                    2013  740  675  746  740  762  741  774  752  712  750  723  742
827980 99999 JOAO PESSOA                    2014  743  687  761  728  766  748  728  714  737  745  720  748
827980 99999 JOAO PESSOA                    2015  754  676  756  725  743  758  786  743  723  747  716  743
827980 99999 JOAO PESSOA                    2016  759  688  749  745  776  740  757  752  719  746  692  752
827980 99999 JOAO PESSOA                    2017  689    0    0    0    0    0    0    0    0    0    0    0


Total Surface Hourly Observations Available: 177266
Total Station-Years: 58
